Time: 0.199
Expansion: 218
Costs: 19834

Time: 0.067
Expansion: 48
Costs: 19186

Time: 0.091
Expansion: 79
Costs: 19456

Time: 0.186
Expansion: 180
Costs: 19024

Time: 0.025
Expansion: 18
Costs: 10168

Time: 0.031
Expansion: 25
Costs: 10006

Time: 0.039
Expansion: 27
Costs: 15568

Time: 0.048
Expansion: 38
Costs: 15460

Time: 0.038
Expansion: 30
Costs: 13300

Time: 0.039
Expansion: 26
Costs: 13732

Time: 0.043
Expansion: 31
Costs: 19780

Time: 15.414
Expansion: 17271
Costs: 1000000000

Time: 0.067
Expansion: 58
Costs: 21724

Time: 0.052
Expansion: 42
Costs: 21454

Time: 0.022
Expansion: 18
Costs: 10114

Time: 0.025
Expansion: 18
Costs: 9466

Time: 0.032
Expansion: 19
Costs: 12220

Time: 0.037
Expansion: 27
Costs: 13138

Time: 0.105
Expansion: 118
Costs: 14488

Time: 0.042
Expansion: 32
Costs: 13786

Time: 0.085
Expansion: 96
Costs: 14812

Time: 0.082
Expansion: 87
Costs: 14650

Time: 0.097
Expansion: 100
Costs: 25234

Time: 0.054
Expansion: 42
Costs: 24046

Time: 0.100
Expansion: 99
Costs: 16972

Time: 0.065
Expansion: 57
Costs: 21346

Time: 15.493
Expansion: 17306
Costs: 1000000000

Time: 1.628
Expansion: 1796
Costs: 16756

Time: 0.042
Expansion: 33
Costs: 17188

Time: 15.566
Expansion: 17332
Costs: 1000000000

Time: 14.555
Expansion: 16296
Costs: 1000000000

Time: 0.215
Expansion: 256
Costs: 20806

Time: 0.028
Expansion: 30
Costs: 11896

Time: 0.034
Expansion: 35
Costs: 11302

Time: 0.166
Expansion: 140
Costs: 15406

Time: 0.215
Expansion: 234
Costs: 16540

Time: 0.083
Expansion: 73
Costs: 13516

Time: 0.042
Expansion: 24
Costs: 13354

Time: 0.056
Expansion: 34
Costs: 15190

Time: 17.559
Expansion: 18575
Costs: 1000000000

Time: 0.049
Expansion: 35
Costs: 12328

Time: 0.024
Expansion: 22
Costs: 11302

Time: 0.145
Expansion: 143
Costs: 13192

Time: 0.054
Expansion: 34
Costs: 19186

Time: 0.055
Expansion: 49
Costs: 13246

Time: 0.052
Expansion: 49
Costs: 13246

Time: 0.043
Expansion: 46
Costs: 7522

Time: 0.059
Expansion: 69
Costs: 7252

