70.843 3052115 61556 1.0

47.407 2085283 61982 1.5

47.219 2085283 61982 2.0

0.994 40324 71332 2.5

0.979 40324 71332 3.0

0.197 2947 72802 3.5

0.195 2503 73236 4.0

0.185 2506 73244 4.5

0.189 2506 73244 5.0

0.190 2506 73244 5.5

0.191 2506 73244 6.0

0.182 2506 73244 6.5

0.183 2506 73244 7.0

0.185 2506 73244 7.5

0.188 2506 73244 8.0

