%!PS-Adobe-3.0 EPSF-3.0
%%Title: rlt.eps
%%Creator: matplotlib version 3.1.1, http://matplotlib.org/
%%CreationDate: Tue Sep 10 12:17:21 2019
%%Orientation: portrait
%%BoundingBox: 10.304999999999964 105.4726510802594 601.695 686.5273489197406
%%EndComments
%%BeginProlog
/mpldict 8 dict def
mpldict begin
/m { moveto } bind def
/l { lineto } bind def
/r { rlineto } bind def
/c { curveto } bind def
/cl { closepath } bind def
/box {
m
1 index 0 r
0 exch r
neg 0 r
cl
} bind def
/clipbox {
box
clip
newpath
} bind def
%!PS-Adobe-3.0 Resource-Font
%%Title: DejaVu Sans
%%Copyright: Copyright (c) 2003 by Bitstream, Inc. All Rights Reserved. Copyright (c) 2006 by Tavmjong Bah. All Rights Reserved. DejaVu changes are in public domain 
%%Creator: Converted from TrueType to type 3 by PPR
25 dict begin
/_d{bind def}bind def
/_m{moveto}_d
/_l{lineto}_d
/_cl{closepath eofill}_d
/_c{curveto}_d
/_sc{7 -1 roll{setcachedevice}{pop pop pop pop pop pop}ifelse}_d
/_e{exec}_d
/FontName /DejaVuSans def
/PaintType 0 def
/FontMatrix[.001 0 0 .001 0 0]def
/FontBBox[-1021 -463 1793 1232]def
/FontType 3 def
/Encoding [ /space /percent /parenleft /parenright /zero /one /two /three /four /five /six /seven /eight /A /C /E /H /L /M /N /O /P /Q /R /S /T /W /a /b /c /e /f /g /h /i /l /m /n /o /p /r /s /t /u /w /x ] def
/FontInfo 10 dict dup begin
/FamilyName (DejaVu Sans) def
/FullName (DejaVu Sans) def
/Notice (Copyright (c) 2003 by Bitstream, Inc. All Rights Reserved. Copyright (c) 2006 by Tavmjong Bah. All Rights Reserved. DejaVu changes are in public domain ) def
/Weight (Book) def
/Version (Version 2.35) def
/ItalicAngle 0.0 def
/isFixedPitch false def
/UnderlinePosition -130 def
/UnderlineThickness 90 def
end readonly def
/CharStrings 47 dict dup begin
/.notdef 0 def
/space{318 0 0 0 0 0 _sc
}_d
/percent{{950 0 55 -13 895 742 _sc
727 321 _m
699 321 676 309 660 285 _c
644 261 636 227 636 184 _c
636 142 644 108 660 84 _c
676 60 699 48 727 48 _c
755 48 777 60 793 84 _c
809 108 817 142 817 184 _c
817 226 809 260 793 284 _c
777 308 755 321 727 321 _c
727 383 _m
778 383 819 365 849 329 _c
879 293 895 244 895 184 _c
895 123 879 75 849 40 _c
819 4 778 -13 727 -13 _c
}_e{675 -13 633 4 603 40 _c
573 75 558 123 558 184 _c
558 245 573 293 603 329 _c
633 365 675 383 727 383 _c
223 680 _m
195 680 173 667 157 643 _c
141 619 133 586 133 544 _c
133 500 141 467 157 443 _c
173 419 195 407 223 407 _c
251 407 274 419 290 443 _c
306 467 314 500 314 544 _c
314 586 305 619 289 643 _c
273 667 251 680 223 680 _c
664 742 _m
742 742 _l
286 -13 _l
}_e{208 -13 _l
664 742 _l
223 742 _m
274 742 315 724 346 688 _c
376 652 392 604 392 544 _c
392 482 376 434 346 398 _c
316 362 275 345 223 345 _c
171 345 130 362 100 398 _c
70 434 55 482 55 544 _c
55 604 70 652 100 688 _c
130 724 171 742 223 742 _c
_cl}_e}_d
/parenleft{390 0 86 -131 310 759 _sc
310 759 _m
266 683 234 609 213 536 _c
191 463 181 389 181 314 _c
181 238 191 164 213 91 _c
234 17 266 -56 310 -131 _c
232 -131 _l
183 -54 146 20 122 94 _c
98 168 86 241 86 314 _c
86 386 98 459 122 533 _c
146 607 182 682 232 759 _c
310 759 _l
_cl}_d
/parenright{390 0 80 -131 304 759 _sc
80 759 _m
158 759 _l
206 682 243 607 267 533 _c
291 459 304 386 304 314 _c
304 241 291 168 267 94 _c
243 20 206 -54 158 -131 _c
80 -131 _l
123 -56 155 17 177 91 _c
198 164 209 238 209 314 _c
209 389 198 463 177 536 _c
155 609 123 683 80 759 _c
_cl}_d
/zero{636 0 66 -13 570 742 _sc
318 664 _m
267 664 229 639 203 589 _c
177 539 165 464 165 364 _c
165 264 177 189 203 139 _c
229 89 267 64 318 64 _c
369 64 407 89 433 139 _c
458 189 471 264 471 364 _c
471 464 458 539 433 589 _c
407 639 369 664 318 664 _c
318 742 _m
399 742 461 709 505 645 _c
548 580 570 486 570 364 _c
570 241 548 147 505 83 _c
461 19 399 -13 318 -13 _c
236 -13 173 19 130 83 _c
87 147 66 241 66 364 _c
66 486 87 580 130 645 _c
173 709 236 742 318 742 _c
_cl}_d
/one{636 0 110 0 544 729 _sc
124 83 _m
285 83 _l
285 639 _l
110 604 _l
110 694 _l
284 729 _l
383 729 _l
383 83 _l
544 83 _l
544 0 _l
124 0 _l
124 83 _l
_cl}_d
/two{{636 0 73 0 536 742 _sc
192 83 _m
536 83 _l
536 0 _l
73 0 _l
73 83 _l
110 121 161 173 226 239 _c
290 304 331 346 348 365 _c
380 400 402 430 414 455 _c
426 479 433 504 433 528 _c
433 566 419 598 392 622 _c
365 646 330 659 286 659 _c
255 659 222 653 188 643 _c
154 632 117 616 78 594 _c
78 694 _l
118 710 155 722 189 730 _c
223 738 255 742 284 742 _c
}_e{359 742 419 723 464 685 _c
509 647 532 597 532 534 _c
532 504 526 475 515 449 _c
504 422 484 390 454 354 _c
446 344 420 317 376 272 _c
332 227 271 164 192 83 _c
_cl}_e}_d
/three{{636 0 76 -13 556 742 _sc
406 393 _m
453 383 490 362 516 330 _c
542 298 556 258 556 212 _c
556 140 531 84 482 45 _c
432 6 362 -13 271 -13 _c
240 -13 208 -10 176 -4 _c
144 1 110 10 76 22 _c
76 117 _l
103 101 133 89 166 81 _c
198 73 232 69 268 69 _c
330 69 377 81 409 105 _c
441 129 458 165 458 212 _c
458 254 443 288 413 312 _c
383 336 341 349 287 349 _c
}_e{202 349 _l
202 430 _l
291 430 _l
339 430 376 439 402 459 _c
428 478 441 506 441 543 _c
441 580 427 609 401 629 _c
374 649 336 659 287 659 _c
260 659 231 656 200 650 _c
169 644 135 635 98 623 _c
98 711 _l
135 721 170 729 203 734 _c
235 739 266 742 296 742 _c
370 742 429 725 473 691 _c
517 657 539 611 539 553 _c
539 513 527 479 504 451 _c
481 423 448 403 406 393 _c
_cl}_e}_d
/four{636 0 49 0 580 729 _sc
378 643 _m
129 254 _l
378 254 _l
378 643 _l
352 729 _m
476 729 _l
476 254 _l
580 254 _l
580 172 _l
476 172 _l
476 0 _l
378 0 _l
378 172 _l
49 172 _l
49 267 _l
352 729 _l
_cl}_d
/five{{636 0 77 -13 549 729 _sc
108 729 _m
495 729 _l
495 646 _l
198 646 _l
198 467 _l
212 472 227 476 241 478 _c
255 480 270 482 284 482 _c
365 482 429 459 477 415 _c
525 370 549 310 549 234 _c
549 155 524 94 475 51 _c
426 8 357 -13 269 -13 _c
238 -13 207 -10 175 -6 _c
143 -1 111 6 77 17 _c
77 116 _l
106 100 136 88 168 80 _c
199 72 232 69 267 69 _c
}_e{323 69 368 83 401 113 _c
433 143 450 183 450 234 _c
450 284 433 324 401 354 _c
368 384 323 399 267 399 _c
241 399 214 396 188 390 _c
162 384 135 375 108 363 _c
108 729 _l
_cl}_e}_d
/six{{636 0 70 -13 573 742 _sc
330 404 _m
286 404 251 388 225 358 _c
199 328 186 286 186 234 _c
186 181 199 139 225 109 _c
251 79 286 64 330 64 _c
374 64 409 79 435 109 _c
461 139 474 181 474 234 _c
474 286 461 328 435 358 _c
409 388 374 404 330 404 _c
526 713 _m
526 623 _l
501 635 476 644 451 650 _c
425 656 400 659 376 659 _c
310 659 260 637 226 593 _c
}_e{192 549 172 482 168 394 _c
187 422 211 444 240 459 _c
269 474 301 482 336 482 _c
409 482 467 459 509 415 _c
551 371 573 310 573 234 _c
573 159 550 99 506 54 _c
462 9 403 -13 330 -13 _c
246 -13 181 19 137 83 _c
92 147 70 241 70 364 _c
70 479 97 571 152 639 _c
206 707 280 742 372 742 _c
396 742 421 739 447 735 _c
472 730 498 723 526 713 _c
_cl}_e}_d
/seven{636 0 82 0 551 729 _sc
82 729 _m
551 729 _l
551 687 _l
286 0 _l
183 0 _l
432 646 _l
82 646 _l
82 729 _l
_cl}_d
/eight{{636 0 68 -13 568 742 _sc
318 346 _m
271 346 234 333 207 308 _c
180 283 167 249 167 205 _c
167 161 180 126 207 101 _c
234 76 271 64 318 64 _c
364 64 401 76 428 102 _c
455 127 469 161 469 205 _c
469 249 455 283 429 308 _c
402 333 365 346 318 346 _c
219 388 _m
177 398 144 418 120 447 _c
96 476 85 511 85 553 _c
85 611 105 657 147 691 _c
188 725 245 742 318 742 _c
}_e{390 742 447 725 489 691 _c
530 657 551 611 551 553 _c
551 511 539 476 515 447 _c
491 418 459 398 417 388 _c
464 377 501 355 528 323 _c
554 291 568 251 568 205 _c
568 134 546 80 503 43 _c
459 5 398 -13 318 -13 _c
237 -13 175 5 132 43 _c
89 80 68 134 68 205 _c
68 251 81 291 108 323 _c
134 355 171 377 219 388 _c
183 544 _m
183 506 194 476 218 455 _c
}_e{242 434 275 424 318 424 _c
360 424 393 434 417 455 _c
441 476 453 506 453 544 _c
453 582 441 611 417 632 _c
393 653 360 664 318 664 _c
275 664 242 653 218 632 _c
194 611 183 582 183 544 _c
_cl}_e}_d
/A{684 0 8 0 676 729 _sc
342 632 _m
208 269 _l
476 269 _l
342 632 _l
286 729 _m
398 729 _l
676 0 _l
573 0 _l
507 187 _l
178 187 _l
112 0 _l
8 0 _l
286 729 _l
_cl}_d
/C{{698 0 56 -13 644 742 _sc
644 673 _m
644 569 _l
610 599 575 622 537 638 _c
499 653 460 661 418 661 _c
334 661 270 635 226 584 _c
182 533 160 460 160 364 _c
160 268 182 194 226 143 _c
270 92 334 67 418 67 _c
460 67 499 74 537 90 _c
575 105 610 128 644 159 _c
644 56 _l
609 32 572 15 534 4 _c
496 -7 455 -13 412 -13 _c
302 -13 215 20 151 87 _c
}_e{87 154 56 246 56 364 _c
56 481 87 573 151 641 _c
215 708 302 742 412 742 _c
456 742 497 736 535 725 _c
573 713 610 696 644 673 _c
_cl}_e}_d
/E{632 0 98 0 568 729 _sc
98 729 _m
559 729 _l
559 646 _l
197 646 _l
197 430 _l
544 430 _l
544 347 _l
197 347 _l
197 83 _l
568 83 _l
568 0 _l
98 0 _l
98 729 _l
_cl}_d
/H{752 0 98 0 654 729 _sc
98 729 _m
197 729 _l
197 430 _l
555 430 _l
555 729 _l
654 729 _l
654 0 _l
555 0 _l
555 347 _l
197 347 _l
197 0 _l
98 0 _l
98 729 _l
_cl}_d
/L{557 0 98 0 552 729 _sc
98 729 _m
197 729 _l
197 83 _l
552 83 _l
552 0 _l
98 0 _l
98 729 _l
_cl}_d
/M{863 0 98 0 765 729 _sc
98 729 _m
245 729 _l
431 233 _l
618 729 _l
765 729 _l
765 0 _l
669 0 _l
669 640 _l
481 140 _l
382 140 _l
194 640 _l
194 0 _l
98 0 _l
98 729 _l
_cl}_d
/N{748 0 98 0 650 729 _sc
98 729 _m
231 729 _l
554 119 _l
554 729 _l
650 729 _l
650 0 _l
517 0 _l
194 610 _l
194 0 _l
98 0 _l
98 729 _l
_cl}_d
/O{787 0 56 -13 731 742 _sc
394 662 _m
322 662 265 635 223 582 _c
181 528 160 456 160 364 _c
160 272 181 199 223 146 _c
265 92 322 66 394 66 _c
465 66 522 92 564 146 _c
606 199 627 272 627 364 _c
627 456 606 528 564 582 _c
522 635 465 662 394 662 _c
394 742 _m
496 742 577 707 639 639 _c
700 571 731 479 731 364 _c
731 248 700 157 639 89 _c
577 21 496 -13 394 -13 _c
291 -13 209 21 148 89 _c
86 157 56 248 56 364 _c
56 479 86 571 148 639 _c
209 707 291 742 394 742 _c
_cl}_d
/P{603 0 98 0 569 729 _sc
197 648 _m
197 374 _l
321 374 _l
367 374 402 385 427 409 _c
452 433 465 467 465 511 _c
465 555 452 588 427 612 _c
402 636 367 648 321 648 _c
197 648 _l
98 729 _m
321 729 _l
402 729 464 710 506 673 _c
548 636 569 582 569 511 _c
569 439 548 384 506 348 _c
464 311 402 293 321 293 _c
197 293 _l
197 0 _l
98 0 _l
98 729 _l
_cl}_d
/Q{{787 0 56 -128 731 742 _sc
394 662 _m
322 662 265 635 223 582 _c
181 528 160 456 160 364 _c
160 272 181 199 223 146 _c
265 92 322 66 394 66 _c
465 66 522 92 564 146 _c
606 199 627 272 627 364 _c
627 456 606 528 564 582 _c
522 635 465 662 394 662 _c
532 13 _m
662 -128 _l
543 -128 _l
435 -11 _l
424 -11 416 -12 410 -12 _c
404 -12 399 -13 394 -13 _c
291 -13 209 21 148 89 _c
}_e{86 157 56 248 56 364 _c
56 479 86 571 148 639 _c
209 707 291 742 394 742 _c
496 742 577 707 639 639 _c
700 571 731 479 731 364 _c
731 279 714 206 680 146 _c
646 86 596 41 532 13 _c
_cl}_e}_d
/R{{695 0 98 0 666 729 _sc
444 342 _m
465 334 486 319 506 296 _c
526 272 546 240 566 199 _c
666 0 _l
560 0 _l
467 187 _l
443 235 419 268 397 284 _c
374 300 343 308 304 308 _c
197 308 _l
197 0 _l
98 0 _l
98 729 _l
321 729 _l
404 729 466 711 507 677 _c
548 642 569 589 569 519 _c
569 473 558 434 537 404 _c
515 374 484 353 444 342 _c
197 648 _m
197 389 _l
321 389 _l
}_e{368 389 404 400 428 422 _c
452 444 465 476 465 519 _c
465 561 452 593 428 615 _c
404 637 368 648 321 648 _c
197 648 _l
_cl}_e}_d
/S{{635 0 66 -13 579 742 _sc
535 705 _m
535 609 _l
497 627 462 640 429 649 _c
395 657 363 662 333 662 _c
279 662 237 651 208 631 _c
179 610 165 580 165 542 _c
165 510 174 485 194 469 _c
213 452 250 439 304 429 _c
364 417 _l
437 403 491 378 526 343 _c
561 307 579 260 579 201 _c
579 130 555 77 508 41 _c
460 5 391 -13 300 -13 _c
265 -13 228 -9 189 -2 _c
}_e{150 5 110 16 69 32 _c
69 134 _l
109 111 148 94 186 83 _c
224 71 262 66 300 66 _c
356 66 399 77 430 99 _c
460 121 476 152 476 194 _c
476 230 465 258 443 278 _c
421 298 385 313 335 323 _c
275 335 _l
201 349 148 372 115 404 _c
82 435 66 478 66 534 _c
66 598 88 649 134 686 _c
179 723 242 742 322 742 _c
356 742 390 739 426 733 _c
461 727 497 717 535 705 _c
}_e{_cl}_e}_d
/T{611 0 -2 0 614 729 _sc
-2 729 _m
614 729 _l
614 646 _l
355 646 _l
355 0 _l
256 0 _l
256 646 _l
-2 646 _l
-2 729 _l
_cl}_d
/W{989 0 33 0 956 729 _sc
33 729 _m
133 729 _l
286 113 _l
439 729 _l
550 729 _l
703 113 _l
856 729 _l
956 729 _l
773 0 _l
649 0 _l
495 633 _l
340 0 _l
216 0 _l
33 729 _l
_cl}_d
/a{{613 0 60 -13 522 560 _sc
343 275 _m
270 275 220 266 192 250 _c
164 233 150 205 150 165 _c
150 133 160 107 181 89 _c
202 70 231 61 267 61 _c
317 61 357 78 387 114 _c
417 149 432 196 432 255 _c
432 275 _l
343 275 _l
522 312 _m
522 0 _l
432 0 _l
432 83 _l
411 49 385 25 355 10 _c
325 -5 287 -13 243 -13 _c
187 -13 142 2 109 33 _c
76 64 60 106 60 159 _c
}_e{60 220 80 266 122 298 _c
163 329 224 345 306 345 _c
432 345 _l
432 354 _l
432 395 418 427 391 450 _c
364 472 326 484 277 484 _c
245 484 215 480 185 472 _c
155 464 127 453 100 439 _c
100 522 _l
132 534 164 544 195 550 _c
226 556 256 560 286 560 _c
365 560 424 539 463 498 _c
502 457 522 395 522 312 _c
_cl}_e}_d
/b{{635 0 91 -13 580 760 _sc
487 273 _m
487 339 473 390 446 428 _c
418 466 381 485 334 485 _c
286 485 249 466 222 428 _c
194 390 181 339 181 273 _c
181 207 194 155 222 117 _c
249 79 286 61 334 61 _c
381 61 418 79 446 117 _c
473 155 487 207 487 273 _c
181 464 _m
199 496 223 520 252 536 _c
281 552 316 560 356 560 _c
422 560 476 533 518 481 _c
559 428 580 359 580 273 _c
}_e{580 187 559 117 518 65 _c
476 13 422 -13 356 -13 _c
316 -13 281 -5 252 10 _c
223 25 199 49 181 82 _c
181 0 _l
91 0 _l
91 760 _l
181 760 _l
181 464 _l
_cl}_e}_d
/c{{550 0 55 -13 488 560 _sc
488 526 _m
488 442 _l
462 456 437 466 411 473 _c
385 480 360 484 334 484 _c
276 484 230 465 198 428 _c
166 391 150 339 150 273 _c
150 206 166 154 198 117 _c
230 80 276 62 334 62 _c
360 62 385 65 411 72 _c
437 79 462 90 488 104 _c
488 21 _l
462 9 436 0 410 -5 _c
383 -10 354 -13 324 -13 _c
242 -13 176 12 128 64 _c
}_e{79 115 55 185 55 273 _c
55 362 79 432 128 483 _c
177 534 244 560 330 560 _c
358 560 385 557 411 551 _c
437 545 463 537 488 526 _c
_cl}_e}_d
/e{{615 0 55 -13 562 560 _sc
562 296 _m
562 252 _l
149 252 _l
153 190 171 142 205 110 _c
238 78 284 62 344 62 _c
378 62 412 66 444 74 _c
476 82 509 95 541 113 _c
541 28 _l
509 14 476 3 442 -3 _c
408 -9 373 -13 339 -13 _c
251 -13 182 12 131 62 _c
80 112 55 181 55 268 _c
55 357 79 428 127 481 _c
175 533 241 560 323 560 _c
397 560 455 536 498 489 _c
}_e{540 441 562 377 562 296 _c
472 322 _m
471 371 457 410 431 440 _c
404 469 368 484 324 484 _c
274 484 234 469 204 441 _c
174 413 156 373 152 322 _c
472 322 _l
_cl}_e}_d
/f{352 0 23 0 371 760 _sc
371 760 _m
371 685 _l
285 685 _l
253 685 230 678 218 665 _c
205 652 199 629 199 595 _c
199 547 _l
347 547 _l
347 477 _l
199 477 _l
199 0 _l
109 0 _l
109 477 _l
23 477 _l
23 547 _l
109 547 _l
109 585 _l
109 645 123 690 151 718 _c
179 746 224 760 286 760 _c
371 760 _l
_cl}_d
/g{{635 0 55 -207 544 560 _sc
454 280 _m
454 344 440 395 414 431 _c
387 467 349 485 301 485 _c
253 485 215 467 188 431 _c
161 395 148 344 148 280 _c
148 215 161 165 188 129 _c
215 93 253 75 301 75 _c
349 75 387 93 414 129 _c
440 165 454 215 454 280 _c
544 68 _m
544 -24 523 -93 482 -139 _c
440 -184 377 -207 292 -207 _c
260 -207 231 -204 203 -200 _c
175 -195 147 -188 121 -178 _c
}_e{121 -91 _l
147 -105 173 -115 199 -122 _c
225 -129 251 -133 278 -133 _c
336 -133 380 -117 410 -87 _c
439 -56 454 -10 454 52 _c
454 96 _l
435 64 411 40 382 24 _c
353 8 319 0 279 0 _c
211 0 157 25 116 76 _c
75 127 55 195 55 280 _c
55 364 75 432 116 483 _c
157 534 211 560 279 560 _c
319 560 353 552 382 536 _c
411 520 435 496 454 464 _c
454 547 _l
544 547 _l
}_e{544 68 _l
_cl}_e}_d
/h{634 0 91 0 549 760 _sc
549 330 _m
549 0 _l
459 0 _l
459 327 _l
459 379 448 417 428 443 _c
408 469 378 482 338 482 _c
289 482 251 466 223 435 _c
195 404 181 362 181 309 _c
181 0 _l
91 0 _l
91 760 _l
181 760 _l
181 462 _l
202 494 227 519 257 535 _c
286 551 320 560 358 560 _c
420 560 468 540 500 501 _c
532 462 549 405 549 330 _c
_cl}_d
/i{278 0 94 0 184 760 _sc
94 547 _m
184 547 _l
184 0 _l
94 0 _l
94 547 _l
94 760 _m
184 760 _l
184 646 _l
94 646 _l
94 760 _l
_cl}_d
/l{278 0 94 0 184 760 _sc
94 760 _m
184 760 _l
184 0 _l
94 0 _l
94 760 _l
_cl}_d
/m{{974 0 91 0 889 560 _sc
520 442 _m
542 482 569 511 600 531 _c
631 550 668 560 711 560 _c
767 560 811 540 842 500 _c
873 460 889 403 889 330 _c
889 0 _l
799 0 _l
799 327 _l
799 379 789 418 771 444 _c
752 469 724 482 686 482 _c
639 482 602 466 575 435 _c
548 404 535 362 535 309 _c
535 0 _l
445 0 _l
445 327 _l
445 379 435 418 417 444 _c
398 469 369 482 331 482 _c
}_e{285 482 248 466 221 435 _c
194 404 181 362 181 309 _c
181 0 _l
91 0 _l
91 547 _l
181 547 _l
181 462 _l
201 495 226 520 255 536 _c
283 552 317 560 357 560 _c
397 560 430 550 458 530 _c
486 510 506 480 520 442 _c
_cl}_e}_d
/n{634 0 91 0 549 560 _sc
549 330 _m
549 0 _l
459 0 _l
459 327 _l
459 379 448 417 428 443 _c
408 469 378 482 338 482 _c
289 482 251 466 223 435 _c
195 404 181 362 181 309 _c
181 0 _l
91 0 _l
91 547 _l
181 547 _l
181 462 _l
202 494 227 519 257 535 _c
286 551 320 560 358 560 _c
420 560 468 540 500 501 _c
532 462 549 405 549 330 _c
_cl}_d
/o{612 0 55 -13 557 560 _sc
306 484 _m
258 484 220 465 192 427 _c
164 389 150 338 150 273 _c
150 207 163 156 191 118 _c
219 80 257 62 306 62 _c
354 62 392 80 420 118 _c
448 156 462 207 462 273 _c
462 337 448 389 420 427 _c
392 465 354 484 306 484 _c
306 560 _m
384 560 445 534 490 484 _c
534 433 557 363 557 273 _c
557 183 534 113 490 63 _c
445 12 384 -13 306 -13 _c
227 -13 165 12 121 63 _c
77 113 55 183 55 273 _c
55 363 77 433 121 484 _c
165 534 227 560 306 560 _c
_cl}_d
/p{{635 0 91 -207 580 560 _sc
181 82 _m
181 -207 _l
91 -207 _l
91 547 _l
181 547 _l
181 464 _l
199 496 223 520 252 536 _c
281 552 316 560 356 560 _c
422 560 476 533 518 481 _c
559 428 580 359 580 273 _c
580 187 559 117 518 65 _c
476 13 422 -13 356 -13 _c
316 -13 281 -5 252 10 _c
223 25 199 49 181 82 _c
487 273 _m
487 339 473 390 446 428 _c
418 466 381 485 334 485 _c
}_e{286 485 249 466 222 428 _c
194 390 181 339 181 273 _c
181 207 194 155 222 117 _c
249 79 286 61 334 61 _c
381 61 418 79 446 117 _c
473 155 487 207 487 273 _c
_cl}_e}_d
/r{411 0 91 0 411 560 _sc
411 463 _m
401 469 390 473 378 476 _c
366 478 353 480 339 480 _c
288 480 249 463 222 430 _c
194 397 181 350 181 288 _c
181 0 _l
91 0 _l
91 547 _l
181 547 _l
181 462 _l
199 495 224 520 254 536 _c
284 552 321 560 365 560 _c
371 560 378 559 386 559 _c
393 558 401 557 411 555 _c
411 463 _l
_cl}_d
/s{{521 0 54 -13 472 560 _sc
443 531 _m
443 446 _l
417 458 391 468 364 475 _c
336 481 308 485 279 485 _c
234 485 200 478 178 464 _c
156 450 145 430 145 403 _c
145 382 153 366 169 354 _c
185 342 217 330 265 320 _c
296 313 _l
360 299 405 279 432 255 _c
458 230 472 195 472 151 _c
472 100 452 60 412 31 _c
372 1 316 -13 246 -13 _c
216 -13 186 -10 154 -5 _c
}_e{122 0 89 8 54 20 _c
54 113 _l
87 95 120 82 152 74 _c
184 65 216 61 248 61 _c
290 61 323 68 346 82 _c
368 96 380 117 380 144 _c
380 168 371 187 355 200 _c
339 213 303 226 247 238 _c
216 245 _l
160 257 119 275 95 299 _c
70 323 58 356 58 399 _c
58 450 76 490 112 518 _c
148 546 200 560 268 560 _c
301 560 332 557 362 552 _c
391 547 418 540 443 531 _c
}_e{_cl}_e}_d
/t{392 0 27 0 368 702 _sc
183 702 _m
183 547 _l
368 547 _l
368 477 _l
183 477 _l
183 180 _l
183 135 189 106 201 94 _c
213 81 238 75 276 75 _c
368 75 _l
368 0 _l
276 0 _l
206 0 158 13 132 39 _c
106 65 93 112 93 180 _c
93 477 _l
27 477 _l
27 547 _l
93 547 _l
93 702 _l
183 702 _l
_cl}_d
/u{634 0 85 -13 543 560 _sc
85 216 _m
85 547 _l
175 547 _l
175 219 _l
175 167 185 129 205 103 _c
225 77 255 64 296 64 _c
344 64 383 79 411 110 _c
439 141 453 183 453 237 _c
453 547 _l
543 547 _l
543 0 _l
453 0 _l
453 84 _l
431 50 405 26 377 10 _c
348 -5 315 -13 277 -13 _c
214 -13 166 6 134 45 _c
101 83 85 140 85 216 _c
311 560 _m
311 560 _l
_cl}_d
/w{818 0 42 0 776 547 _sc
42 547 _m
132 547 _l
244 120 _l
356 547 _l
462 547 _l
574 120 _l
686 547 _l
776 547 _l
633 0 _l
527 0 _l
409 448 _l
291 0 _l
185 0 _l
42 547 _l
_cl}_d
/x{592 0 29 0 559 547 _sc
549 547 _m
351 281 _l
559 0 _l
453 0 _l
294 215 _l
135 0 _l
29 0 _l
241 286 _l
47 547 _l
153 547 _l
298 352 _l
443 547 _l
549 547 _l
_cl}_d
end readonly def

/BuildGlyph
 {exch begin
 CharStrings exch
 2 copy known not{pop /.notdef}if
 true 3 1 roll get exec
 end}_d

/BuildChar {
 1 index /Encoding get exch get
 1 index /BuildGlyph get exec
}_d

FontName currentdict end definefont pop
end
%%EndProlog
mpldict begin
10.305 105.473 translate
591.39 581.055 0 0 clipbox
gsave
0 0 m
591.39 0 l
591.39 581.054698 l
0 581.054698 l
cl
1.000 setgray
fill
grestore
gsave
46.95 322.871875 m
280.19 322.871875 l
280.19 570.831875 l
46.95 570.831875 l
cl
1.000 setgray
fill
grestore
0.800 setlinewidth
1 setlinejoin
0 setlinecap
[] 0 setdash
0.000 setgray
gsave
/o {
gsave
newpath
translate
0.8 setlinewidth
1 setlinejoin
0 setlinecap
0 0 m
0 -3.5 l

gsave
0.000 setgray
fill
grestore
stroke
grestore
} bind def
76.105 322.872 o
grestore
/DejaVuSans findfont
10.000 scalefont
setfont
gsave
64.894063 308.278125 translate
0.000000 rotate
0.000000 0.000000 m /M glyphshow
8.627930 0.000000 m /R glyphshow
15.576172 0.000000 m /A glyphshow
grestore
gsave
/o {
gsave
newpath
translate
0.8 setlinewidth
1 setlinejoin
0 setlinecap
0 0 m
0 -3.5 l

gsave
0.000 setgray
fill
grestore
stroke
grestore
} bind def
134.415 322.872 o
grestore
gsave
109.079063 308.278125 translate
0.000000 rotate
0.000000 0.000000 m /M glyphshow
8.627930 0.000000 m /R glyphshow
15.576172 0.000000 m /A glyphshow
22.416992 0.000000 m /O glyphshow
30.288086 0.000000 m /n glyphshow
36.625977 0.000000 m /e glyphshow
42.778320 0.000000 m /Q glyphshow
grestore
gsave
/o {
gsave
newpath
translate
0.8 setlinewidth
1 setlinejoin
0 setlinecap
0 0 m
0 -3.5 l

gsave
0.000 setgray
fill
grestore
stroke
grestore
} bind def
192.725 322.872 o
grestore
gsave
172.865625 308.278125 translate
0.000000 rotate
0.000000 0.000000 m /W glyphshow
9.887695 0.000000 m /A glyphshow
16.728516 0.000000 m /H glyphshow
24.248047 0.000000 m /i glyphshow
27.026367 0.000000 m /g glyphshow
33.374023 0.000000 m /h glyphshow
grestore
gsave
/o {
gsave
newpath
translate
0.8 setlinewidth
1 setlinejoin
0 setlinecap
0 0 m
0 -3.5 l

gsave
0.000 setgray
fill
grestore
stroke
grestore
} bind def
251.035 322.872 o
grestore
gsave
232.722500 308.278125 translate
0.000000 rotate
0.000000 0.000000 m /W glyphshow
9.887695 0.000000 m /A glyphshow
16.728516 0.000000 m /L glyphshow
22.299805 0.000000 m /o glyphshow
28.417969 0.000000 m /w glyphshow
grestore
2 setlinecap
0.690 setgray
gsave
233.2 248 46.95 322.9 clipbox
46.95 334.1389 m
280.19 334.1389 l
stroke
grestore
0 setlinecap
0.000 setgray
gsave
/o {
gsave
newpath
translate
0.8 setlinewidth
1 setlinejoin
0 setlinecap
0 0 m
-3.5 0 l

gsave
0.000 setgray
fill
grestore
stroke
grestore
} bind def
46.95 334.139 o
grestore
gsave
33.590625 330.342025 translate
0.000000 rotate
0.000000 0.000000 m /zero glyphshow
grestore
2 setlinecap
0.690 setgray
gsave
233.2 248 46.95 322.9 clipbox
46.95 372.98033 m
280.19 372.98033 l
stroke
grestore
0 setlinecap
0.000 setgray
gsave
/o {
gsave
newpath
translate
0.8 setlinewidth
1 setlinejoin
0 setlinecap
0 0 m
-3.5 0 l

gsave
0.000 setgray
fill
grestore
stroke
grestore
} bind def
46.95 372.98 o
grestore
gsave
27.231250 369.183455 translate
0.000000 rotate
0.000000 0.000000 m /two glyphshow
6.362305 0.000000 m /zero glyphshow
grestore
2 setlinecap
0.690 setgray
gsave
233.2 248 46.95 322.9 clipbox
46.95 411.82176 m
280.19 411.82176 l
stroke
grestore
0 setlinecap
0.000 setgray
gsave
/o {
gsave
newpath
translate
0.8 setlinewidth
1 setlinejoin
0 setlinecap
0 0 m
-3.5 0 l

gsave
0.000 setgray
fill
grestore
stroke
grestore
} bind def
46.95 411.822 o
grestore
gsave
27.231250 408.024885 translate
0.000000 rotate
0.000000 0.000000 m /four glyphshow
6.362305 0.000000 m /zero glyphshow
grestore
2 setlinecap
0.690 setgray
gsave
233.2 248 46.95 322.9 clipbox
46.95 450.66319 m
280.19 450.66319 l
stroke
grestore
0 setlinecap
0.000 setgray
gsave
/o {
gsave
newpath
translate
0.8 setlinewidth
1 setlinejoin
0 setlinecap
0 0 m
-3.5 0 l

gsave
0.000 setgray
fill
grestore
stroke
grestore
} bind def
46.95 450.663 o
grestore
gsave
27.231250 446.866315 translate
0.000000 rotate
0.000000 0.000000 m /six glyphshow
6.362305 0.000000 m /zero glyphshow
grestore
2 setlinecap
0.690 setgray
gsave
233.2 248 46.95 322.9 clipbox
46.95 489.50462 m
280.19 489.50462 l
stroke
grestore
0 setlinecap
0.000 setgray
gsave
/o {
gsave
newpath
translate
0.8 setlinewidth
1 setlinejoin
0 setlinecap
0 0 m
-3.5 0 l

gsave
0.000 setgray
fill
grestore
stroke
grestore
} bind def
46.95 489.505 o
grestore
gsave
27.231250 485.707745 translate
0.000000 rotate
0.000000 0.000000 m /eight glyphshow
6.362305 0.000000 m /zero glyphshow
grestore
2 setlinecap
0.690 setgray
gsave
233.2 248 46.95 322.9 clipbox
46.95 528.346051 m
280.19 528.346051 l
stroke
grestore
0 setlinecap
0.000 setgray
gsave
/o {
gsave
newpath
translate
0.8 setlinewidth
1 setlinejoin
0 setlinecap
0 0 m
-3.5 0 l

gsave
0.000 setgray
fill
grestore
stroke
grestore
} bind def
46.95 528.346 o
grestore
gsave
20.871875 524.549176 translate
0.000000 rotate
0.000000 0.000000 m /one glyphshow
6.362305 0.000000 m /zero glyphshow
12.724609 0.000000 m /zero glyphshow
grestore
2 setlinecap
0.690 setgray
gsave
233.2 248 46.95 322.9 clipbox
46.95 567.187481 m
280.19 567.187481 l
stroke
grestore
0 setlinecap
0.000 setgray
gsave
/o {
gsave
newpath
translate
0.8 setlinewidth
1 setlinejoin
0 setlinecap
0 0 m
-3.5 0 l

gsave
0.000 setgray
fill
grestore
stroke
grestore
} bind def
46.95 567.187 o
grestore
gsave
20.871875 563.390606 translate
0.000000 rotate
0.000000 0.000000 m /one glyphshow
6.362305 0.000000 m /two glyphshow
12.724609 0.000000 m /zero glyphshow
grestore
gsave
14.793750 403.203438 translate
90.000000 rotate
0.000000 0.000000 m /P glyphshow
6.030273 0.000000 m /l glyphshow
8.808594 0.000000 m /a glyphshow
14.936523 0.000000 m /n glyphshow
21.274414 0.000000 m /n glyphshow
27.612305 0.000000 m /i glyphshow
30.390625 0.000000 m /n glyphshow
36.728516 0.000000 m /g glyphshow
43.076172 0.000000 m /space glyphshow
46.254883 0.000000 m /T glyphshow
52.363281 0.000000 m /i glyphshow
55.141602 0.000000 m /m glyphshow
64.882812 0.000000 m /e glyphshow
71.035156 0.000000 m /space glyphshow
74.213867 0.000000 m /parenleft glyphshow
78.115234 0.000000 m /s glyphshow
83.325195 0.000000 m /parenright glyphshow
grestore
1.000 setlinewidth
2 setlinecap
gsave
233.2 248 46.95 322.9 clipbox
76.105 334.36418 m
76.105 334.146668 l
stroke
grestore
gsave
233.2 248 46.95 322.9 clipbox
76.105 339.363072 m
76.105 346.787612 l
stroke
grestore
gsave
233.2 248 46.95 322.9 clipbox
69.545125 334.146668 m
82.664875 334.146668 l
stroke
grestore
gsave
233.2 248 46.95 322.9 clipbox
69.545125 346.787612 m
82.664875 346.787612 l
stroke
grestore
0 setlinecap
gsave
233.2 248 46.95 322.9 clipbox
/o {
gsave
newpath
translate
1.0 setlinewidth
1 setlinejoin
0 setlinecap
0 -3 m
0.795609 -3 1.55874 -2.683901 2.12132 -2.12132 c
2.683901 -1.55874 3 -0.795609 3 0 c
3 0.795609 2.683901 1.55874 2.12132 2.12132 c
1.55874 2.683901 0.795609 3 0 3 c
-0.795609 3 -1.55874 2.683901 -2.12132 2.12132 c
-2.683901 1.55874 -3 0.795609 -3 0 c
-3 -0.795609 -2.683901 -1.55874 -2.12132 -2.12132 c
-1.55874 -2.683901 -0.795609 -3 0 -3 c
cl

gsave
grestore
stroke
grestore
} bind def
76.105 433.058 o
76.105 368.242 o
76.105 394.842 o
76.105 365.733 o
76.105 351.377 o
76.105 362.53 o
76.105 377.286 o
76.105 356.3 o
76.105 365.872 o
76.105 351.709 o
76.105 349.975 o
76.105 376.721 o
76.105 410.658 o
76.105 402.076 o
76.105 363.651 o
76.105 403.43 o
76.105 384.239 o
76.105 469.628 o
76.105 410.037 o
76.105 366.039 o
76.105 348.654 o
grestore
2 setlinecap
gsave
233.2 248 46.95 322.9 clipbox
134.415 334.731717 m
134.415 334.14861 l
stroke
grestore
gsave
233.2 248 46.95 322.9 clipbox
134.415 368.833036 m
134.415 408.669778 l
stroke
grestore
gsave
233.2 248 46.95 322.9 clipbox
127.855125 334.14861 m
140.974875 334.14861 l
stroke
grestore
gsave
233.2 248 46.95 322.9 clipbox
127.855125 408.669778 m
140.974875 408.669778 l
stroke
grestore
0 setlinecap
gsave
233.2 248 46.95 322.9 clipbox
/o {
gsave
newpath
translate
1.0 setlinewidth
1 setlinejoin
0 setlinecap
0 -3 m
0.795609 -3 1.55874 -2.683901 2.12132 -2.12132 c
2.683901 -1.55874 3 -0.795609 3 0 c
3 0.795609 2.683901 1.55874 2.12132 2.12132 c
1.55874 2.683901 0.795609 3 0 3 c
-0.795609 3 -1.55874 2.683901 -2.12132 2.12132 c
-2.683901 1.55874 -3 0.795609 -3 0 c
-3 -0.795609 -2.683901 -1.55874 -2.12132 -2.12132 c
-1.55874 -2.683901 -0.795609 -3 0 -3 c
cl

gsave
grestore
stroke
grestore
} bind def
134.415 425.89 o
134.415 436.094 o
134.415 559.561 o
134.415 485.112 o
134.415 456.406 o
134.415 505.251 o
134.415 507.172 o
134.415 437.484 o
134.415 447.63 o
134.415 420.546 o
134.415 524.757 o
grestore
2 setlinecap
gsave
233.2 248 46.95 322.9 clipbox
192.725 334.806002 m
192.725 334.154437 l
stroke
grestore
gsave
233.2 248 46.95 322.9 clipbox
192.725 367.902299 m
192.725 411.819818 l
stroke
grestore
gsave
233.2 248 46.95 322.9 clipbox
186.165125 334.154437 m
199.284875 334.154437 l
stroke
grestore
gsave
233.2 248 46.95 322.9 clipbox
186.165125 411.819818 m
199.284875 411.819818 l
stroke
grestore
0 setlinecap
gsave
233.2 248 46.95 322.9 clipbox
/o {
gsave
newpath
translate
1.0 setlinewidth
1 setlinejoin
0 setlinecap
0 -3 m
0.795609 -3 1.55874 -2.683901 2.12132 -2.12132 c
2.683901 -1.55874 3 -0.795609 3 0 c
3 0.795609 2.683901 1.55874 2.12132 2.12132 c
1.55874 2.683901 0.795609 3 0 3 c
-0.795609 3 -1.55874 2.683901 -2.12132 2.12132 c
-2.683901 1.55874 -3 0.795609 -3 0 c
-3 -0.795609 -2.683901 -1.55874 -2.12132 -2.12132 c
-1.55874 -2.683901 -0.795609 -3 0 -3 c
cl

gsave
grestore
stroke
grestore
} bind def
192.725 426.906 o
192.725 422.264 o
192.725 553.129 o
192.725 481.484 o
192.725 458.296 o
192.725 499.001 o
192.725 501.81 o
192.725 434.728 o
192.725 442.724 o
192.725 417.959 o
192.725 493.597 o
grestore
2 setlinecap
gsave
233.2 248 46.95 322.9 clipbox
251.035 334.238917 m
251.035 334.142784 l
stroke
grestore
gsave
233.2 248 46.95 322.9 clipbox
251.035 335.237141 m
251.035 336.731565 l
stroke
grestore
gsave
233.2 248 46.95 322.9 clipbox
244.475125 334.142784 m
257.594875 334.142784 l
stroke
grestore
gsave
233.2 248 46.95 322.9 clipbox
244.475125 336.731565 m
257.594875 336.731565 l
stroke
grestore
0 setlinecap
gsave
233.2 248 46.95 322.9 clipbox
/o {
gsave
newpath
translate
1.0 setlinewidth
1 setlinejoin
0 setlinecap
0 -3 m
0.795609 -3 1.55874 -2.683901 2.12132 -2.12132 c
2.683901 -1.55874 3 -0.795609 3 0 c
3 0.795609 2.683901 1.55874 2.12132 2.12132 c
1.55874 2.683901 0.795609 3 0 3 c
-0.795609 3 -1.55874 2.683901 -2.12132 2.12132 c
-2.683901 1.55874 -3 0.795609 -3 0 c
-3 -0.795609 -2.683901 -1.55874 -2.12132 -2.12132 c
-1.55874 -2.683901 -0.795609 -3 0 -3 c
cl

gsave
grestore
stroke
grestore
} bind def
251.035 336.986 o
251.035 337.367 o
251.035 338.852 o
251.035 337.724 o
251.035 342.758 o
251.035 341.132 o
251.035 337.087 o
251.035 338.26 o
251.035 337.788 o
grestore
0 setlinejoin
[] 0 setdash
gsave
233.2 248 46.95 322.9 clipbox
62.98525 334.36418 m
89.22475 334.36418 l
89.22475 339.363072 l
62.98525 339.363072 l
62.98525 334.36418 l
cl
gsave
0.122 0.467 0.706 setrgbcolor
fill
grestore
stroke
grestore
gsave
233.2 248 46.95 322.9 clipbox
121.29525 334.731717 m
147.53475 334.731717 l
147.53475 368.833036 l
121.29525 368.833036 l
121.29525 334.731717 l
cl
gsave
0.122 0.467 0.706 setrgbcolor
fill
grestore
stroke
grestore
gsave
233.2 248 46.95 322.9 clipbox
179.60525 334.806002 m
205.84475 334.806002 l
205.84475 367.902299 l
179.60525 367.902299 l
179.60525 334.806002 l
cl
gsave
0.122 0.467 0.706 setrgbcolor
fill
grestore
stroke
grestore
gsave
233.2 248 46.95 322.9 clipbox
237.91525 334.238917 m
264.15475 334.238917 l
264.15475 335.237141 l
237.91525 335.237141 l
237.91525 334.238917 l
cl
gsave
0.122 0.467 0.706 setrgbcolor
fill
grestore
stroke
grestore
1 setlinejoin
2 setlinecap
[] 0 setdash
1.000 0.498 0.055 setrgbcolor
gsave
233.2 248 46.95 322.9 clipbox
62.98525 335.009919 m
89.22475 335.009919 l
stroke
grestore
gsave
233.2 248 46.95 322.9 clipbox
121.29525 343.114183 m
147.53475 343.114183 l
stroke
grestore
gsave
233.2 248 46.95 322.9 clipbox
179.60525 342.983094 m
205.84475 342.983094 l
stroke
grestore
gsave
233.2 248 46.95 322.9 clipbox
237.91525 334.561301 m
264.15475 334.561301 l
stroke
grestore
0.800 setlinewidth
0 setlinejoin
[] 0 setdash
0.000 setgray
gsave
46.95 322.871875 m
46.95 570.831875 l
stroke
grestore
gsave
280.19 322.871875 m
280.19 570.831875 l
stroke
grestore
gsave
46.95 322.871875 m
280.19 322.871875 l
stroke
grestore
gsave
46.95 570.831875 m
280.19 570.831875 l
stroke
grestore
gsave
350.95 322.871875 m
584.19 322.871875 l
584.19 570.831875 l
350.95 570.831875 l
cl
1.000 setgray
fill
grestore
1 setlinejoin
0 setlinecap
[] 0 setdash
gsave
/o {
gsave
newpath
translate
0.8 setlinewidth
1 setlinejoin
0 setlinecap
0 0 m
0 -3.5 l

gsave
0.000 setgray
fill
grestore
stroke
grestore
} bind def
380.105 322.872 o
grestore
gsave
368.894063 308.278125 translate
0.000000 rotate
0.000000 0.000000 m /M glyphshow
8.627930 0.000000 m /R glyphshow
15.576172 0.000000 m /A glyphshow
grestore
gsave
/o {
gsave
newpath
translate
0.8 setlinewidth
1 setlinejoin
0 setlinecap
0 0 m
0 -3.5 l

gsave
0.000 setgray
fill
grestore
stroke
grestore
} bind def
438.415 322.872 o
grestore
gsave
413.079063 308.278125 translate
0.000000 rotate
0.000000 0.000000 m /M glyphshow
8.627930 0.000000 m /R glyphshow
15.576172 0.000000 m /A glyphshow
22.416992 0.000000 m /O glyphshow
30.288086 0.000000 m /n glyphshow
36.625977 0.000000 m /e glyphshow
42.778320 0.000000 m /Q glyphshow
grestore
gsave
/o {
gsave
newpath
translate
0.8 setlinewidth
1 setlinejoin
0 setlinecap
0 0 m
0 -3.5 l

gsave
0.000 setgray
fill
grestore
stroke
grestore
} bind def
496.725 322.872 o
grestore
gsave
476.865625 308.278125 translate
0.000000 rotate
0.000000 0.000000 m /W glyphshow
9.887695 0.000000 m /A glyphshow
16.728516 0.000000 m /H glyphshow
24.248047 0.000000 m /i glyphshow
27.026367 0.000000 m /g glyphshow
33.374023 0.000000 m /h glyphshow
grestore
gsave
/o {
gsave
newpath
translate
0.8 setlinewidth
1 setlinejoin
0 setlinecap
0 0 m
0 -3.5 l

gsave
0.000 setgray
fill
grestore
stroke
grestore
} bind def
555.035 322.872 o
grestore
gsave
536.722500 308.278125 translate
0.000000 rotate
0.000000 0.000000 m /W glyphshow
9.887695 0.000000 m /A glyphshow
16.728516 0.000000 m /L glyphshow
22.299805 0.000000 m /o glyphshow
28.417969 0.000000 m /w glyphshow
grestore
2 setlinecap
0.690 setgray
gsave
233.2 248 351 322.9 clipbox
350.95 334.142346 m
584.19 334.142346 l
stroke
grestore
0 setlinecap
0.000 setgray
gsave
/o {
gsave
newpath
translate
0.8 setlinewidth
1 setlinejoin
0 setlinecap
0 0 m
-3.5 0 l

gsave
0.000 setgray
fill
grestore
stroke
grestore
} bind def
350.95 334.142 o
grestore
gsave
337.590625 330.345471 translate
0.000000 rotate
0.000000 0.000000 m /zero glyphshow
grestore
2 setlinecap
0.690 setgray
gsave
233.2 248 351 322.9 clipbox
350.95 367.844557 m
584.19 367.844557 l
stroke
grestore
0 setlinecap
0.000 setgray
gsave
/o {
gsave
newpath
translate
0.8 setlinewidth
1 setlinejoin
0 setlinecap
0 0 m
-3.5 0 l

gsave
0.000 setgray
fill
grestore
stroke
grestore
} bind def
350.95 367.845 o
grestore
gsave
318.512500 364.047682 translate
0.000000 rotate
0.000000 0.000000 m /one glyphshow
6.362305 0.000000 m /zero glyphshow
12.724609 0.000000 m /zero glyphshow
19.086914 0.000000 m /zero glyphshow
grestore
2 setlinecap
0.690 setgray
gsave
233.2 248 351 322.9 clipbox
350.95 401.546768 m
584.19 401.546768 l
stroke
grestore
0 setlinecap
0.000 setgray
gsave
/o {
gsave
newpath
translate
0.8 setlinewidth
1 setlinejoin
0 setlinecap
0 0 m
-3.5 0 l

gsave
0.000 setgray
fill
grestore
stroke
grestore
} bind def
350.95 401.547 o
grestore
gsave
318.512500 397.749893 translate
0.000000 rotate
0.000000 0.000000 m /two glyphshow
6.362305 0.000000 m /zero glyphshow
12.724609 0.000000 m /zero glyphshow
19.086914 0.000000 m /zero glyphshow
grestore
2 setlinecap
0.690 setgray
gsave
233.2 248 351 322.9 clipbox
350.95 435.248979 m
584.19 435.248979 l
stroke
grestore
0 setlinecap
0.000 setgray
gsave
/o {
gsave
newpath
translate
0.8 setlinewidth
1 setlinejoin
0 setlinecap
0 0 m
-3.5 0 l

gsave
0.000 setgray
fill
grestore
stroke
grestore
} bind def
350.95 435.249 o
grestore
gsave
318.512500 431.452104 translate
0.000000 rotate
0.000000 0.000000 m /three glyphshow
6.362305 0.000000 m /zero glyphshow
12.724609 0.000000 m /zero glyphshow
19.086914 0.000000 m /zero glyphshow
grestore
2 setlinecap
0.690 setgray
gsave
233.2 248 351 322.9 clipbox
350.95 468.95119 m
584.19 468.95119 l
stroke
grestore
0 setlinecap
0.000 setgray
gsave
/o {
gsave
newpath
translate
0.8 setlinewidth
1 setlinejoin
0 setlinecap
0 0 m
-3.5 0 l

gsave
0.000 setgray
fill
grestore
stroke
grestore
} bind def
350.95 468.951 o
grestore
gsave
318.512500 465.154315 translate
0.000000 rotate
0.000000 0.000000 m /four glyphshow
6.362305 0.000000 m /zero glyphshow
12.724609 0.000000 m /zero glyphshow
19.086914 0.000000 m /zero glyphshow
grestore
2 setlinecap
0.690 setgray
gsave
233.2 248 351 322.9 clipbox
350.95 502.653401 m
584.19 502.653401 l
stroke
grestore
0 setlinecap
0.000 setgray
gsave
/o {
gsave
newpath
translate
0.8 setlinewidth
1 setlinejoin
0 setlinecap
0 0 m
-3.5 0 l

gsave
0.000 setgray
fill
grestore
stroke
grestore
} bind def
350.95 502.653 o
grestore
gsave
318.512500 498.856526 translate
0.000000 rotate
0.000000 0.000000 m /five glyphshow
6.362305 0.000000 m /zero glyphshow
12.724609 0.000000 m /zero glyphshow
19.086914 0.000000 m /zero glyphshow
grestore
2 setlinecap
0.690 setgray
gsave
233.2 248 351 322.9 clipbox
350.95 536.355612 m
584.19 536.355612 l
stroke
grestore
0 setlinecap
0.000 setgray
gsave
/o {
gsave
newpath
translate
0.8 setlinewidth
1 setlinejoin
0 setlinecap
0 0 m
-3.5 0 l

gsave
0.000 setgray
fill
grestore
stroke
grestore
} bind def
350.95 536.356 o
grestore
gsave
318.512500 532.558737 translate
0.000000 rotate
0.000000 0.000000 m /six glyphshow
6.362305 0.000000 m /zero glyphshow
12.724609 0.000000 m /zero glyphshow
19.086914 0.000000 m /zero glyphshow
grestore
2 setlinecap
0.690 setgray
gsave
233.2 248 351 322.9 clipbox
350.95 570.057823 m
584.19 570.057823 l
stroke
grestore
0 setlinecap
0.000 setgray
gsave
/o {
gsave
newpath
translate
0.8 setlinewidth
1 setlinejoin
0 setlinecap
0 0 m
-3.5 0 l

gsave
0.000 setgray
fill
grestore
stroke
grestore
} bind def
350.95 570.058 o
grestore
gsave
318.512500 566.260948 translate
0.000000 rotate
0.000000 0.000000 m /seven glyphshow
6.362305 0.000000 m /zero glyphshow
12.724609 0.000000 m /zero glyphshow
19.086914 0.000000 m /zero glyphshow
grestore
gsave
312.434375 375.445625 translate
90.000000 rotate
0.000000 0.000000 m /N glyphshow
7.480469 0.000000 m /u glyphshow
13.818359 0.000000 m /m glyphshow
23.559570 0.000000 m /b glyphshow
29.907227 0.000000 m /e glyphshow
36.059570 0.000000 m /r glyphshow
40.170898 0.000000 m /space glyphshow
43.349609 0.000000 m /o glyphshow
49.467773 0.000000 m /f glyphshow
52.988281 0.000000 m /space glyphshow
56.166992 0.000000 m /E glyphshow
62.485352 0.000000 m /x glyphshow
68.403320 0.000000 m /p glyphshow
74.750977 0.000000 m /a glyphshow
80.878906 0.000000 m /n glyphshow
87.216797 0.000000 m /s glyphshow
92.426758 0.000000 m /i glyphshow
95.205078 0.000000 m /o glyphshow
101.323242 0.000000 m /n glyphshow
107.661133 0.000000 m /s glyphshow
112.871094 0.000000 m /space glyphshow
116.049805 0.000000 m /parenleft glyphshow
119.951172 0.000000 m /one glyphshow
126.313477 0.000000 m /e glyphshow
132.465820 0.000000 m /three glyphshow
138.828125 0.000000 m /parenright glyphshow
grestore
1.000 setlinewidth
2 setlinecap
gsave
233.2 248 351 322.9 clipbox
380.105 334.180185 m
380.105 334.143694 l
stroke
grestore
gsave
233.2 248 351 322.9 clipbox
380.105 335.753868 m
380.105 337.59143 l
stroke
grestore
gsave
233.2 248 351 322.9 clipbox
373.545125 334.143694 m
386.664875 334.143694 l
stroke
grestore
gsave
233.2 248 351 322.9 clipbox
373.545125 337.59143 m
386.664875 337.59143 l
stroke
grestore
0 setlinecap
gsave
233.2 248 351 322.9 clipbox
/o {
gsave
newpath
translate
1.0 setlinewidth
1 setlinejoin
0 setlinecap
0 -3 m
0.795609 -3 1.55874 -2.683901 2.12132 -2.12132 c
2.683901 -1.55874 3 -0.795609 3 0 c
3 0.795609 2.683901 1.55874 2.12132 2.12132 c
1.55874 2.683901 0.795609 3 0 3 c
-0.795609 3 -1.55874 2.683901 -2.12132 2.12132 c
-2.683901 1.55874 -3 0.795609 -3 0 c
-3 -0.795609 -2.683901 -1.55874 -2.12132 -2.12132 c
-1.55874 -2.683901 -0.795609 -3 0 -3 c
cl

gsave
grestore
stroke
grestore
} bind def
380.105 424.552 o
380.105 368.325 o
380.105 388.195 o
380.105 365.522 o
380.105 342.486 o
380.105 357.128 o
380.105 368.26 o
380.105 338.872 o
380.105 340.842 o
380.105 351.562 o
380.105 347.636 o
380.105 339.204 o
380.105 374.935 o
380.105 341.432 o
380.105 400.394 o
380.105 403.089 o
380.105 339.266 o
380.105 361.759 o
380.105 400.919 o
380.105 385.644 o
380.105 345.312 o
380.105 453.962 o
380.105 405.963 o
380.105 361.185 o
380.105 347.533 o
380.105 343.533 o
380.105 342.408 o
grestore
2 setlinecap
gsave
233.2 248 351 322.9 clipbox
438.415 334.620007 m
438.415 334.14302 l
stroke
grestore
gsave
233.2 248 351 322.9 clipbox
438.415 368.447818 m
438.415 409.105432 l
stroke
grestore
gsave
233.2 248 351 322.9 clipbox
431.855125 334.14302 m
444.974875 334.14302 l
stroke
grestore
gsave
233.2 248 351 322.9 clipbox
431.855125 409.105432 m
444.974875 409.105432 l
stroke
grestore
0 setlinecap
gsave
233.2 248 351 322.9 clipbox
/o {
gsave
newpath
translate
1.0 setlinewidth
1 setlinejoin
0 setlinecap
0 -3 m
0.795609 -3 1.55874 -2.683901 2.12132 -2.12132 c
2.683901 -1.55874 3 -0.795609 3 0 c
3 0.795609 2.683901 1.55874 2.12132 2.12132 c
1.55874 2.683901 0.795609 3 0 3 c
-0.795609 3 -1.55874 2.683901 -2.12132 2.12132 c
-2.683901 1.55874 -3 0.795609 -3 0 c
-3 -0.795609 -2.683901 -1.55874 -2.12132 -2.12132 c
-1.55874 -2.683901 -0.795609 -3 0 -3 c
cl

gsave
grestore
stroke
grestore
} bind def
438.415 423.733 o
438.415 434.013 o
438.415 556.342 o
438.415 483.03 o
438.415 453.899 o
438.415 502.213 o
438.415 504.185 o
438.415 436.823 o
438.415 447.945 o
438.415 420.313 o
438.415 521.581 o
grestore
2 setlinecap
gsave
233.2 248 351 322.9 clipbox
496.725 334.73569 m
496.725 334.149862 l
stroke
grestore
gsave
233.2 248 351 322.9 clipbox
496.725 368.888533 m
496.725 414.938813 l
stroke
grestore
gsave
233.2 248 351 322.9 clipbox
490.165125 334.149862 m
503.284875 334.149862 l
stroke
grestore
gsave
233.2 248 351 322.9 clipbox
490.165125 414.938813 m
503.284875 414.938813 l
stroke
grestore
0 setlinecap
gsave
233.2 248 351 322.9 clipbox
/o {
gsave
newpath
translate
1.0 setlinewidth
1 setlinejoin
0 setlinecap
0 -3 m
0.795609 -3 1.55874 -2.683901 2.12132 -2.12132 c
2.683901 -1.55874 3 -0.795609 3 0 c
3 0.795609 2.683901 1.55874 2.12132 2.12132 c
1.55874 2.683901 0.795609 3 0 3 c
-0.795609 3 -1.55874 2.683901 -2.12132 2.12132 c
-2.683901 1.55874 -3 0.795609 -3 0 c
-3 -0.795609 -2.683901 -1.55874 -2.12132 -2.12132 c
-1.55874 -2.683901 -0.795609 -3 0 -3 c
cl

gsave
grestore
stroke
grestore
} bind def
496.725 430.41 o
496.725 424.431 o
496.725 559.561 o
496.725 486.293 o
496.725 462.618 o
496.725 502.245 o
496.725 503.954 o
496.725 437.172 o
496.725 447.268 o
496.725 421.574 o
496.725 497.482 o
grestore
2 setlinecap
gsave
233.2 248 351 322.9 clipbox
555.035 334.15517 m
555.035 334.142784 l
stroke
grestore
gsave
233.2 248 351 322.9 clipbox
555.035 334.377941 m
555.035 334.706791 l
stroke
grestore
gsave
233.2 248 351 322.9 clipbox
548.475125 334.142784 m
561.594875 334.142784 l
stroke
grestore
gsave
233.2 248 351 322.9 clipbox
548.475125 334.706791 m
561.594875 334.706791 l
stroke
grestore
0 setlinecap
gsave
233.2 248 351 322.9 clipbox
/o {
gsave
newpath
translate
1.0 setlinewidth
1 setlinejoin
0 setlinecap
0 -3 m
0.795609 -3 1.55874 -2.683901 2.12132 -2.12132 c
2.683901 -1.55874 3 -0.795609 3 0 c
3 0.795609 2.683901 1.55874 2.12132 2.12132 c
1.55874 2.683901 0.795609 3 0 3 c
-0.795609 3 -1.55874 2.683901 -2.12132 2.12132 c
-2.683901 1.55874 -3 0.795609 -3 0 c
-3 -0.795609 -2.683901 -1.55874 -2.12132 -2.12132 c
-1.55874 -2.683901 -0.795609 -3 0 -3 c
cl

gsave
grestore
stroke
grestore
} bind def
555.035 334.772 o
555.035 334.802 o
555.035 335.17 o
555.035 334.918 o
555.035 336.033 o
555.035 335.677 o
555.035 335.054 o
555.035 334.955 o
grestore
0 setlinejoin
[] 0 setdash
gsave
233.2 248 351 322.9 clipbox
366.98525 334.180185 m
393.22475 334.180185 l
393.22475 335.753868 l
366.98525 335.753868 l
366.98525 334.180185 l
cl
gsave
0.122 0.467 0.706 setrgbcolor
fill
grestore
stroke
grestore
gsave
233.2 248 351 322.9 clipbox
425.29525 334.620007 m
451.53475 334.620007 l
451.53475 368.447818 l
425.29525 368.447818 l
425.29525 334.620007 l
cl
gsave
0.122 0.467 0.706 setrgbcolor
fill
grestore
stroke
grestore
gsave
233.2 248 351 322.9 clipbox
483.60525 334.73569 m
509.84475 334.73569 l
509.84475 368.888533 l
483.60525 368.888533 l
483.60525 334.73569 l
cl
gsave
0.122 0.467 0.706 setrgbcolor
fill
grestore
stroke
grestore
gsave
233.2 248 351 322.9 clipbox
541.91525 334.15517 m
568.15475 334.15517 l
568.15475 334.377941 l
541.91525 334.377941 l
541.91525 334.15517 l
cl
gsave
0.122 0.467 0.706 setrgbcolor
fill
grestore
stroke
grestore
1 setlinejoin
2 setlinecap
[] 0 setdash
1.000 0.498 0.055 setrgbcolor
gsave
233.2 248 351 322.9 clipbox
366.98525 334.326124 m
393.22475 334.326124 l
stroke
grestore
gsave
233.2 248 351 322.9 clipbox
425.29525 343.049166 m
451.53475 343.049166 l
stroke
grestore
gsave
233.2 248 351 322.9 clipbox
483.60525 343.224822 m
509.84475 343.224822 l
stroke
grestore
gsave
233.2 248 351 322.9 clipbox
541.91525 334.228421 m
568.15475 334.228421 l
stroke
grestore
0.800 setlinewidth
0 setlinejoin
[] 0 setdash
0.000 setgray
gsave
350.95 322.871875 m
350.95 570.831875 l
stroke
grestore
gsave
584.19 322.871875 m
584.19 570.831875 l
stroke
grestore
gsave
350.95 322.871875 m
584.19 322.871875 l
stroke
grestore
gsave
350.95 570.831875 m
584.19 570.831875 l
stroke
grestore
gsave
46.95 23.871875 m
280.19 23.871875 l
280.19 271.831875 l
46.95 271.831875 l
cl
1.000 setgray
fill
grestore
1 setlinejoin
0 setlinecap
[] 0 setdash
gsave
/o {
gsave
newpath
translate
0.8 setlinewidth
1 setlinejoin
0 setlinecap
0 0 m
0 -3.5 l

gsave
0.000 setgray
fill
grestore
stroke
grestore
} bind def
76.105 23.8719 o
grestore
gsave
64.894063 9.278125 translate
0.000000 rotate
0.000000 0.000000 m /M glyphshow
8.627930 0.000000 m /R glyphshow
15.576172 0.000000 m /A glyphshow
grestore
gsave
/o {
gsave
newpath
translate
0.8 setlinewidth
1 setlinejoin
0 setlinecap
0 0 m
0 -3.5 l

gsave
0.000 setgray
fill
grestore
stroke
grestore
} bind def
134.415 23.8719 o
grestore
gsave
109.079063 9.278125 translate
0.000000 rotate
0.000000 0.000000 m /M glyphshow
8.627930 0.000000 m /R glyphshow
15.576172 0.000000 m /A glyphshow
22.416992 0.000000 m /O glyphshow
30.288086 0.000000 m /n glyphshow
36.625977 0.000000 m /e glyphshow
42.778320 0.000000 m /Q glyphshow
grestore
gsave
/o {
gsave
newpath
translate
0.8 setlinewidth
1 setlinejoin
0 setlinecap
0 0 m
0 -3.5 l

gsave
0.000 setgray
fill
grestore
stroke
grestore
} bind def
192.725 23.8719 o
grestore
gsave
172.865625 9.278125 translate
0.000000 rotate
0.000000 0.000000 m /W glyphshow
9.887695 0.000000 m /A glyphshow
16.728516 0.000000 m /H glyphshow
24.248047 0.000000 m /i glyphshow
27.026367 0.000000 m /g glyphshow
33.374023 0.000000 m /h glyphshow
grestore
gsave
/o {
gsave
newpath
translate
0.8 setlinewidth
1 setlinejoin
0 setlinecap
0 0 m
0 -3.5 l

gsave
0.000 setgray
fill
grestore
stroke
grestore
} bind def
251.035 23.8719 o
grestore
gsave
232.722500 9.278125 translate
0.000000 rotate
0.000000 0.000000 m /W glyphshow
9.887695 0.000000 m /A glyphshow
16.728516 0.000000 m /L glyphshow
22.299805 0.000000 m /o glyphshow
28.417969 0.000000 m /w glyphshow
grestore
2 setlinecap
0.690 setgray
gsave
233.2 248 46.95 23.87 clipbox
46.95 31.677906 m
280.19 31.677906 l
stroke
grestore
0 setlinecap
0.000 setgray
gsave
/o {
gsave
newpath
translate
0.8 setlinewidth
1 setlinejoin
0 setlinecap
0 0 m
-3.5 0 l

gsave
0.000 setgray
fill
grestore
stroke
grestore
} bind def
46.95 31.6779 o
grestore
gsave
33.590625 27.881031 translate
0.000000 rotate
0.000000 0.000000 m /zero glyphshow
grestore
2 setlinecap
0.690 setgray
gsave
233.2 248 46.95 23.87 clipbox
46.95 65.6473 m
280.19 65.6473 l
stroke
grestore
0 setlinecap
0.000 setgray
gsave
/o {
gsave
newpath
translate
0.8 setlinewidth
1 setlinejoin
0 setlinecap
0 0 m
-3.5 0 l

gsave
0.000 setgray
fill
grestore
stroke
grestore
} bind def
46.95 65.6473 o
grestore
gsave
27.231250 61.850425 translate
0.000000 rotate
0.000000 0.000000 m /two glyphshow
6.362305 0.000000 m /five glyphshow
grestore
2 setlinecap
0.690 setgray
gsave
233.2 248 46.95 23.87 clipbox
46.95 99.616694 m
280.19 99.616694 l
stroke
grestore
0 setlinecap
0.000 setgray
gsave
/o {
gsave
newpath
translate
0.8 setlinewidth
1 setlinejoin
0 setlinecap
0 0 m
-3.5 0 l

gsave
0.000 setgray
fill
grestore
stroke
grestore
} bind def
46.95 99.6167 o
grestore
gsave
27.231250 95.819819 translate
0.000000 rotate
0.000000 0.000000 m /five glyphshow
6.362305 0.000000 m /zero glyphshow
grestore
2 setlinecap
0.690 setgray
gsave
233.2 248 46.95 23.87 clipbox
46.95 133.586088 m
280.19 133.586088 l
stroke
grestore
0 setlinecap
0.000 setgray
gsave
/o {
gsave
newpath
translate
0.8 setlinewidth
1 setlinejoin
0 setlinecap
0 0 m
-3.5 0 l

gsave
0.000 setgray
fill
grestore
stroke
grestore
} bind def
46.95 133.586 o
grestore
gsave
27.231250 129.789213 translate
0.000000 rotate
0.000000 0.000000 m /seven glyphshow
6.362305 0.000000 m /five glyphshow
grestore
2 setlinecap
0.690 setgray
gsave
233.2 248 46.95 23.87 clipbox
46.95 167.555482 m
280.19 167.555482 l
stroke
grestore
0 setlinecap
0.000 setgray
gsave
/o {
gsave
newpath
translate
0.8 setlinewidth
1 setlinejoin
0 setlinecap
0 0 m
-3.5 0 l

gsave
0.000 setgray
fill
grestore
stroke
grestore
} bind def
46.95 167.555 o
grestore
gsave
20.871875 163.758607 translate
0.000000 rotate
0.000000 0.000000 m /one glyphshow
6.362305 0.000000 m /zero glyphshow
12.724609 0.000000 m /zero glyphshow
grestore
2 setlinecap
0.690 setgray
gsave
233.2 248 46.95 23.87 clipbox
46.95 201.524876 m
280.19 201.524876 l
stroke
grestore
0 setlinecap
0.000 setgray
gsave
/o {
gsave
newpath
translate
0.8 setlinewidth
1 setlinejoin
0 setlinecap
0 0 m
-3.5 0 l

gsave
0.000 setgray
fill
grestore
stroke
grestore
} bind def
46.95 201.525 o
grestore
gsave
20.871875 197.728001 translate
0.000000 rotate
0.000000 0.000000 m /one glyphshow
6.362305 0.000000 m /two glyphshow
12.724609 0.000000 m /five glyphshow
grestore
2 setlinecap
0.690 setgray
gsave
233.2 248 46.95 23.87 clipbox
46.95 235.494271 m
280.19 235.494271 l
stroke
grestore
0 setlinecap
0.000 setgray
gsave
/o {
gsave
newpath
translate
0.8 setlinewidth
1 setlinejoin
0 setlinecap
0 0 m
-3.5 0 l

gsave
0.000 setgray
fill
grestore
stroke
grestore
} bind def
46.95 235.494 o
grestore
gsave
20.871875 231.697396 translate
0.000000 rotate
0.000000 0.000000 m /one glyphshow
6.362305 0.000000 m /five glyphshow
12.724609 0.000000 m /zero glyphshow
grestore
2 setlinecap
0.690 setgray
gsave
233.2 248 46.95 23.87 clipbox
46.95 269.463665 m
280.19 269.463665 l
stroke
grestore
0 setlinecap
0.000 setgray
gsave
/o {
gsave
newpath
translate
0.8 setlinewidth
1 setlinejoin
0 setlinecap
0 0 m
-3.5 0 l

gsave
0.000 setgray
fill
grestore
stroke
grestore
} bind def
46.95 269.464 o
grestore
gsave
20.871875 265.666790 translate
0.000000 rotate
0.000000 0.000000 m /one glyphshow
6.362305 0.000000 m /seven glyphshow
12.724609 0.000000 m /five glyphshow
grestore
gsave
14.793750 99.812813 translate
90.000000 rotate
0.000000 0.000000 m /S glyphshow
6.347656 0.000000 m /o glyphshow
12.465820 0.000000 m /l glyphshow
15.244141 0.000000 m /u glyphshow
21.582031 0.000000 m /t glyphshow
25.502930 0.000000 m /i glyphshow
28.281250 0.000000 m /o glyphshow
34.399414 0.000000 m /n glyphshow
40.737305 0.000000 m /space glyphshow
43.916016 0.000000 m /C glyphshow
50.898438 0.000000 m /o glyphshow
57.016602 0.000000 m /s glyphshow
62.226562 0.000000 m /t glyphshow
66.147461 0.000000 m /space glyphshow
69.326172 0.000000 m /parenleft glyphshow
73.227539 0.000000 m /one glyphshow
79.589844 0.000000 m /e glyphshow
85.742188 0.000000 m /three glyphshow
92.104492 0.000000 m /parenright glyphshow
grestore
1.000 setlinewidth
2 setlinecap
gsave
233.2 248 46.95 23.87 clipbox
76.105 104.725012 m
76.105 35.485196 l
stroke
grestore
gsave
233.2 248 46.95 23.87 clipbox
76.105 175.195199 m
76.105 259.873425 l
stroke
grestore
gsave
233.2 248 46.95 23.87 clipbox
69.545125 35.485196 m
82.664875 35.485196 l
stroke
grestore
gsave
233.2 248 46.95 23.87 clipbox
69.545125 259.873425 m
82.664875 259.873425 l
stroke
grestore
gsave
233.2 248 46.95 23.87 clipbox
134.415 107.4908 m
134.415 35.142784 l
stroke
grestore
gsave
233.2 248 46.95 23.87 clipbox
134.415 167.408735 m
134.415 244.880694 l
stroke
grestore
gsave
233.2 248 46.95 23.87 clipbox
127.855125 35.142784 m
140.974875 35.142784 l
stroke
grestore
gsave
233.2 248 46.95 23.87 clipbox
127.855125 244.880694 m
140.974875 244.880694 l
stroke
grestore
gsave
233.2 248 46.95 23.87 clipbox
192.725 109.944069 m
192.725 35.142784 l
stroke
grestore
gsave
233.2 248 46.95 23.87 clipbox
192.725 167.329926 m
192.725 252.318632 l
stroke
grestore
gsave
233.2 248 46.95 23.87 clipbox
186.165125 35.142784 m
199.284875 35.142784 l
stroke
grestore
gsave
233.2 248 46.95 23.87 clipbox
186.165125 252.318632 m
199.284875 252.318632 l
stroke
grestore
gsave
233.2 248 46.95 23.87 clipbox
251.035 112.29679 m
251.035 35.482478 l
stroke
grestore
gsave
233.2 248 46.95 23.87 clipbox
251.035 179.851724 m
251.035 260.560966 l
stroke
grestore
gsave
233.2 248 46.95 23.87 clipbox
244.475125 35.482478 m
257.594875 35.482478 l
stroke
grestore
gsave
233.2 248 46.95 23.87 clipbox
244.475125 260.560966 m
257.594875 260.560966 l
stroke
grestore
0 setlinejoin
0 setlinecap
[] 0 setdash
gsave
233.2 248 46.95 23.87 clipbox
62.98525 104.725012 m
89.22475 104.725012 l
89.22475 175.195199 l
62.98525 175.195199 l
62.98525 104.725012 l
cl
gsave
0.122 0.467 0.706 setrgbcolor
fill
grestore
stroke
grestore
gsave
233.2 248 46.95 23.87 clipbox
121.29525 107.4908 m
147.53475 107.4908 l
147.53475 167.408735 l
121.29525 167.408735 l
121.29525 107.4908 l
cl
gsave
0.122 0.467 0.706 setrgbcolor
fill
grestore
stroke
grestore
gsave
233.2 248 46.95 23.87 clipbox
179.60525 109.944069 m
205.84475 109.944069 l
205.84475 167.329926 l
179.60525 167.329926 l
179.60525 109.944069 l
cl
gsave
0.122 0.467 0.706 setrgbcolor
fill
grestore
stroke
grestore
gsave
233.2 248 46.95 23.87 clipbox
237.91525 112.29679 m
264.15475 112.29679 l
264.15475 179.851724 l
237.91525 179.851724 l
237.91525 112.29679 l
cl
gsave
0.122 0.467 0.706 setrgbcolor
fill
grestore
stroke
grestore
1 setlinejoin
2 setlinecap
[] 0 setdash
1.000 0.498 0.055 setrgbcolor
gsave
233.2 248 46.95 23.87 clipbox
62.98525 137.64611 m
89.22475 137.64611 l
stroke
grestore
gsave
233.2 248 46.95 23.87 clipbox
121.29525 135.197596 m
147.53475 135.197596 l
stroke
grestore
gsave
233.2 248 46.95 23.87 clipbox
179.60525 136.185426 m
205.84475 136.185426 l
stroke
grestore
gsave
233.2 248 46.95 23.87 clipbox
237.91525 145.196827 m
264.15475 145.196827 l
stroke
grestore
0.800 setlinewidth
0 setlinejoin
[] 0 setdash
0.000 setgray
gsave
46.95 23.871875 m
46.95 271.831875 l
stroke
grestore
gsave
280.19 23.871875 m
280.19 271.831875 l
stroke
grestore
gsave
46.95 23.871875 m
280.19 23.871875 l
stroke
grestore
gsave
46.95 271.831875 m
280.19 271.831875 l
stroke
grestore
gsave
350.95 23.871875 m
584.19 23.871875 l
584.19 271.831875 l
350.95 271.831875 l
cl
1.000 setgray
fill
grestore
gsave
233.2 248 351 23.87 clipbox
361.551818 23.871875 m
406.191053 23.871875 l
406.191053 260.024256 l
361.551818 260.024256 l
cl
0.122 0.467 0.706 setrgbcolor
fill
grestore
gsave
233.2 248 351 23.87 clipbox
417.350861 23.871875 m
461.990096 23.871875 l
461.990096 252.099679 l
417.350861 252.099679 l
cl
0.122 0.467 0.706 setrgbcolor
fill
grestore
gsave
233.2 248 351 23.87 clipbox
473.149904 23.871875 m
517.789139 23.871875 l
517.789139 253.684595 l
473.149904 253.684595 l
cl
0.122 0.467 0.706 setrgbcolor
fill
grestore
gsave
233.2 248 351 23.87 clipbox
528.948947 23.871875 m
573.588182 23.871875 l
573.588182 228.32595 l
528.948947 228.32595 l
cl
0.122 0.467 0.706 setrgbcolor
fill
grestore
1 setlinejoin
0 setlinecap
[] 0 setdash
gsave
/o {
gsave
newpath
translate
0.8 setlinewidth
1 setlinejoin
0 setlinecap
0 0 m
0 -3.5 l

gsave
0.000 setgray
fill
grestore
stroke
grestore
} bind def
383.871 23.8719 o
grestore
gsave
372.660498 9.278125 translate
0.000000 rotate
0.000000 0.000000 m /M glyphshow
8.627930 0.000000 m /R glyphshow
15.576172 0.000000 m /A glyphshow
grestore
gsave
/o {
gsave
newpath
translate
0.8 setlinewidth
1 setlinejoin
0 setlinecap
0 0 m
0 -3.5 l

gsave
0.000 setgray
fill
grestore
stroke
grestore
} bind def
439.67 23.8719 o
grestore
gsave
414.334541 9.278125 translate
0.000000 rotate
0.000000 0.000000 m /M glyphshow
8.627930 0.000000 m /R glyphshow
15.576172 0.000000 m /A glyphshow
22.416992 0.000000 m /O glyphshow
30.288086 0.000000 m /n glyphshow
36.625977 0.000000 m /e glyphshow
42.778320 0.000000 m /Q glyphshow
grestore
gsave
/o {
gsave
newpath
translate
0.8 setlinewidth
1 setlinejoin
0 setlinecap
0 0 m
0 -3.5 l

gsave
0.000 setgray
fill
grestore
stroke
grestore
} bind def
495.47 23.8719 o
grestore
gsave
475.610147 9.278125 translate
0.000000 rotate
0.000000 0.000000 m /W glyphshow
9.887695 0.000000 m /A glyphshow
16.728516 0.000000 m /H glyphshow
24.248047 0.000000 m /i glyphshow
27.026367 0.000000 m /g glyphshow
33.374023 0.000000 m /h glyphshow
grestore
gsave
/o {
gsave
newpath
translate
0.8 setlinewidth
1 setlinejoin
0 setlinecap
0 0 m
0 -3.5 l

gsave
0.000 setgray
fill
grestore
stroke
grestore
} bind def
551.269 23.8719 o
grestore
gsave
532.956065 9.278125 translate
0.000000 rotate
0.000000 0.000000 m /W glyphshow
9.887695 0.000000 m /A glyphshow
16.728516 0.000000 m /L glyphshow
22.299805 0.000000 m /o glyphshow
28.417969 0.000000 m /w glyphshow
grestore
2 setlinecap
0.690 setgray
gsave
233.2 248 351 23.87 clipbox
350.95 23.871875 m
584.19 23.871875 l
stroke
grestore
0 setlinecap
0.000 setgray
gsave
/o {
gsave
newpath
translate
0.8 setlinewidth
1 setlinejoin
0 setlinecap
0 0 m
-3.5 0 l

gsave
0.000 setgray
fill
grestore
stroke
grestore
} bind def
350.95 23.8719 o
grestore
gsave
337.590625 20.075000 translate
0.000000 rotate
0.000000 0.000000 m /zero glyphshow
grestore
2 setlinecap
0.690 setgray
gsave
233.2 248 351 23.87 clipbox
350.95 71.419334 m
584.19 71.419334 l
stroke
grestore
0 setlinecap
0.000 setgray
gsave
/o {
gsave
newpath
translate
0.8 setlinewidth
1 setlinejoin
0 setlinecap
0 0 m
-3.5 0 l

gsave
0.000 setgray
fill
grestore
stroke
grestore
} bind def
350.95 71.4193 o
grestore
gsave
331.231250 67.622459 translate
0.000000 rotate
0.000000 0.000000 m /two glyphshow
6.362305 0.000000 m /zero glyphshow
grestore
2 setlinecap
0.690 setgray
gsave
233.2 248 351 23.87 clipbox
350.95 118.966794 m
584.19 118.966794 l
stroke
grestore
0 setlinecap
0.000 setgray
gsave
/o {
gsave
newpath
translate
0.8 setlinewidth
1 setlinejoin
0 setlinecap
0 0 m
-3.5 0 l

gsave
0.000 setgray
fill
grestore
stroke
grestore
} bind def
350.95 118.967 o
grestore
gsave
331.231250 115.169919 translate
0.000000 rotate
0.000000 0.000000 m /four glyphshow
6.362305 0.000000 m /zero glyphshow
grestore
2 setlinecap
0.690 setgray
gsave
233.2 248 351 23.87 clipbox
350.95 166.514253 m
584.19 166.514253 l
stroke
grestore
0 setlinecap
0.000 setgray
gsave
/o {
gsave
newpath
translate
0.8 setlinewidth
1 setlinejoin
0 setlinecap
0 0 m
-3.5 0 l

gsave
0.000 setgray
fill
grestore
stroke
grestore
} bind def
350.95 166.514 o
grestore
gsave
331.231250 162.717378 translate
0.000000 rotate
0.000000 0.000000 m /six glyphshow
6.362305 0.000000 m /zero glyphshow
grestore
2 setlinecap
0.690 setgray
gsave
233.2 248 351 23.87 clipbox
350.95 214.061712 m
584.19 214.061712 l
stroke
grestore
0 setlinecap
0.000 setgray
gsave
/o {
gsave
newpath
translate
0.8 setlinewidth
1 setlinejoin
0 setlinecap
0 0 m
-3.5 0 l

gsave
0.000 setgray
fill
grestore
stroke
grestore
} bind def
350.95 214.062 o
grestore
gsave
331.231250 210.264837 translate
0.000000 rotate
0.000000 0.000000 m /eight glyphshow
6.362305 0.000000 m /zero glyphshow
grestore
2 setlinecap
0.690 setgray
gsave
233.2 248 351 23.87 clipbox
350.95 261.609171 m
584.19 261.609171 l
stroke
grestore
0 setlinecap
0.000 setgray
gsave
/o {
gsave
newpath
translate
0.8 setlinewidth
1 setlinejoin
0 setlinecap
0 0 m
-3.5 0 l

gsave
0.000 setgray
fill
grestore
stroke
grestore
} bind def
350.95 261.609 o
grestore
gsave
324.871875 257.812296 translate
0.000000 rotate
0.000000 0.000000 m /one glyphshow
6.362305 0.000000 m /zero glyphshow
12.724609 0.000000 m /zero glyphshow
grestore
gsave
318.793750 104.289375 translate
90.000000 rotate
0.000000 0.000000 m /S glyphshow
6.347656 0.000000 m /u glyphshow
12.685547 0.000000 m /c glyphshow
18.183594 0.000000 m /c glyphshow
23.681641 0.000000 m /e glyphshow
29.833984 0.000000 m /s glyphshow
35.043945 0.000000 m /s glyphshow
40.253906 0.000000 m /space glyphshow
43.432617 0.000000 m /R glyphshow
50.380859 0.000000 m /a glyphshow
56.508789 0.000000 m /t glyphshow
60.429688 0.000000 m /e glyphshow
66.582031 0.000000 m /space glyphshow
69.760742 0.000000 m /parenleft glyphshow
73.662109 0.000000 m /percent glyphshow
83.164062 0.000000 m /parenright glyphshow
grestore
0 setlinejoin
2 setlinecap
[] 0 setdash
gsave
350.95 23.871875 m
350.95 271.831875 l
stroke
grestore
gsave
584.19 23.871875 m
584.19 271.831875 l
stroke
grestore
gsave
350.95 23.871875 m
584.19 23.871875 l
stroke
grestore
gsave
350.95 271.831875 m
584.19 271.831875 l
stroke
grestore

end
showpage
