%!PS-Adobe-3.0 EPSF-3.0
%%Title: rlt.eps
%%Creator: matplotlib version 3.1.1, http://matplotlib.org/
%%CreationDate: Thu Oct  3 18:59:22 2019
%%Orientation: portrait
%%BoundingBox: 10.304999999999964 105.47266049653587 601.695 686.5273395034642
%%EndComments
%%BeginProlog
/mpldict 9 dict def
mpldict begin
/m { moveto } bind def
/l { lineto } bind def
/r { rlineto } bind def
/c { curveto } bind def
/cl { closepath } bind def
/box {
m
1 index 0 r
0 exch r
neg 0 r
cl
} bind def
/clipbox {
box
clip
newpath
} bind def
%!PS-Adobe-3.0 Resource-Font
%%Title: DejaVu Sans
%%Copyright: Copyright (c) 2003 by Bitstream, Inc. All Rights Reserved. Copyright (c) 2006 by Tavmjong Bah. All Rights Reserved. DejaVu changes are in public domain 
%%Creator: Converted from TrueType to type 3 by PPR
25 dict begin
/_d{bind def}bind def
/_m{moveto}_d
/_l{lineto}_d
/_cl{closepath eofill}_d
/_c{curveto}_d
/_sc{7 -1 roll{setcachedevice}{pop pop pop pop pop pop}ifelse}_d
/_e{exec}_d
/FontName /DejaVuSans def
/PaintType 0 def
/FontMatrix[.001 0 0 .001 0 0]def
/FontBBox[-1021 -463 1793 1232]def
/FontType 3 def
/Encoding [ /space /percent /parenleft /parenright /zero /one /two /three /four /five /six /seven /eight /A /C /D /E /H /L /M /N /O /P /Q /R /S /T /W /a /b /c /e /f /g /h /i /l /m /n /o /p /r /s /t /u /w /x ] def
/FontInfo 10 dict dup begin
/FamilyName (DejaVu Sans) def
/FullName (DejaVu Sans) def
/Notice (Copyright (c) 2003 by Bitstream, Inc. All Rights Reserved. Copyright (c) 2006 by Tavmjong Bah. All Rights Reserved. DejaVu changes are in public domain ) def
/Weight (Book) def
/Version (Version 2.35) def
/ItalicAngle 0.0 def
/isFixedPitch false def
/UnderlinePosition -130 def
/UnderlineThickness 90 def
end readonly def
/CharStrings 48 dict dup begin
/.notdef 0 def
/space{318 0 0 0 0 0 _sc
}_d
/percent{{950 0 55 -13 895 742 _sc
727 321 _m
699 321 676 309 660 285 _c
644 261 636 227 636 184 _c
636 142 644 108 660 84 _c
676 60 699 48 727 48 _c
755 48 777 60 793 84 _c
809 108 817 142 817 184 _c
817 226 809 260 793 284 _c
777 308 755 321 727 321 _c
727 383 _m
778 383 819 365 849 329 _c
879 293 895 244 895 184 _c
895 123 879 75 849 40 _c
819 4 778 -13 727 -13 _c
}_e{675 -13 633 4 603 40 _c
573 75 558 123 558 184 _c
558 245 573 293 603 329 _c
633 365 675 383 727 383 _c
223 680 _m
195 680 173 667 157 643 _c
141 619 133 586 133 544 _c
133 500 141 467 157 443 _c
173 419 195 407 223 407 _c
251 407 274 419 290 443 _c
306 467 314 500 314 544 _c
314 586 305 619 289 643 _c
273 667 251 680 223 680 _c
664 742 _m
742 742 _l
286 -13 _l
}_e{208 -13 _l
664 742 _l
223 742 _m
274 742 315 724 346 688 _c
376 652 392 604 392 544 _c
392 482 376 434 346 398 _c
316 362 275 345 223 345 _c
171 345 130 362 100 398 _c
70 434 55 482 55 544 _c
55 604 70 652 100 688 _c
130 724 171 742 223 742 _c
_cl}_e}_d
/parenleft{390 0 86 -131 310 759 _sc
310 759 _m
266 683 234 609 213 536 _c
191 463 181 389 181 314 _c
181 238 191 164 213 91 _c
234 17 266 -56 310 -131 _c
232 -131 _l
183 -54 146 20 122 94 _c
98 168 86 241 86 314 _c
86 386 98 459 122 533 _c
146 607 182 682 232 759 _c
310 759 _l
_cl}_d
/parenright{390 0 80 -131 304 759 _sc
80 759 _m
158 759 _l
206 682 243 607 267 533 _c
291 459 304 386 304 314 _c
304 241 291 168 267 94 _c
243 20 206 -54 158 -131 _c
80 -131 _l
123 -56 155 17 177 91 _c
198 164 209 238 209 314 _c
209 389 198 463 177 536 _c
155 609 123 683 80 759 _c
_cl}_d
/zero{636 0 66 -13 570 742 _sc
318 664 _m
267 664 229 639 203 589 _c
177 539 165 464 165 364 _c
165 264 177 189 203 139 _c
229 89 267 64 318 64 _c
369 64 407 89 433 139 _c
458 189 471 264 471 364 _c
471 464 458 539 433 589 _c
407 639 369 664 318 664 _c
318 742 _m
399 742 461 709 505 645 _c
548 580 570 486 570 364 _c
570 241 548 147 505 83 _c
461 19 399 -13 318 -13 _c
236 -13 173 19 130 83 _c
87 147 66 241 66 364 _c
66 486 87 580 130 645 _c
173 709 236 742 318 742 _c
_cl}_d
/one{636 0 110 0 544 729 _sc
124 83 _m
285 83 _l
285 639 _l
110 604 _l
110 694 _l
284 729 _l
383 729 _l
383 83 _l
544 83 _l
544 0 _l
124 0 _l
124 83 _l
_cl}_d
/two{{636 0 73 0 536 742 _sc
192 83 _m
536 83 _l
536 0 _l
73 0 _l
73 83 _l
110 121 161 173 226 239 _c
290 304 331 346 348 365 _c
380 400 402 430 414 455 _c
426 479 433 504 433 528 _c
433 566 419 598 392 622 _c
365 646 330 659 286 659 _c
255 659 222 653 188 643 _c
154 632 117 616 78 594 _c
78 694 _l
118 710 155 722 189 730 _c
223 738 255 742 284 742 _c
}_e{359 742 419 723 464 685 _c
509 647 532 597 532 534 _c
532 504 526 475 515 449 _c
504 422 484 390 454 354 _c
446 344 420 317 376 272 _c
332 227 271 164 192 83 _c
_cl}_e}_d
/three{{636 0 76 -13 556 742 _sc
406 393 _m
453 383 490 362 516 330 _c
542 298 556 258 556 212 _c
556 140 531 84 482 45 _c
432 6 362 -13 271 -13 _c
240 -13 208 -10 176 -4 _c
144 1 110 10 76 22 _c
76 117 _l
103 101 133 89 166 81 _c
198 73 232 69 268 69 _c
330 69 377 81 409 105 _c
441 129 458 165 458 212 _c
458 254 443 288 413 312 _c
383 336 341 349 287 349 _c
}_e{202 349 _l
202 430 _l
291 430 _l
339 430 376 439 402 459 _c
428 478 441 506 441 543 _c
441 580 427 609 401 629 _c
374 649 336 659 287 659 _c
260 659 231 656 200 650 _c
169 644 135 635 98 623 _c
98 711 _l
135 721 170 729 203 734 _c
235 739 266 742 296 742 _c
370 742 429 725 473 691 _c
517 657 539 611 539 553 _c
539 513 527 479 504 451 _c
481 423 448 403 406 393 _c
_cl}_e}_d
/four{636 0 49 0 580 729 _sc
378 643 _m
129 254 _l
378 254 _l
378 643 _l
352 729 _m
476 729 _l
476 254 _l
580 254 _l
580 172 _l
476 172 _l
476 0 _l
378 0 _l
378 172 _l
49 172 _l
49 267 _l
352 729 _l
_cl}_d
/five{{636 0 77 -13 549 729 _sc
108 729 _m
495 729 _l
495 646 _l
198 646 _l
198 467 _l
212 472 227 476 241 478 _c
255 480 270 482 284 482 _c
365 482 429 459 477 415 _c
525 370 549 310 549 234 _c
549 155 524 94 475 51 _c
426 8 357 -13 269 -13 _c
238 -13 207 -10 175 -6 _c
143 -1 111 6 77 17 _c
77 116 _l
106 100 136 88 168 80 _c
199 72 232 69 267 69 _c
}_e{323 69 368 83 401 113 _c
433 143 450 183 450 234 _c
450 284 433 324 401 354 _c
368 384 323 399 267 399 _c
241 399 214 396 188 390 _c
162 384 135 375 108 363 _c
108 729 _l
_cl}_e}_d
/six{{636 0 70 -13 573 742 _sc
330 404 _m
286 404 251 388 225 358 _c
199 328 186 286 186 234 _c
186 181 199 139 225 109 _c
251 79 286 64 330 64 _c
374 64 409 79 435 109 _c
461 139 474 181 474 234 _c
474 286 461 328 435 358 _c
409 388 374 404 330 404 _c
526 713 _m
526 623 _l
501 635 476 644 451 650 _c
425 656 400 659 376 659 _c
310 659 260 637 226 593 _c
}_e{192 549 172 482 168 394 _c
187 422 211 444 240 459 _c
269 474 301 482 336 482 _c
409 482 467 459 509 415 _c
551 371 573 310 573 234 _c
573 159 550 99 506 54 _c
462 9 403 -13 330 -13 _c
246 -13 181 19 137 83 _c
92 147 70 241 70 364 _c
70 479 97 571 152 639 _c
206 707 280 742 372 742 _c
396 742 421 739 447 735 _c
472 730 498 723 526 713 _c
_cl}_e}_d
/seven{636 0 82 0 551 729 _sc
82 729 _m
551 729 _l
551 687 _l
286 0 _l
183 0 _l
432 646 _l
82 646 _l
82 729 _l
_cl}_d
/eight{{636 0 68 -13 568 742 _sc
318 346 _m
271 346 234 333 207 308 _c
180 283 167 249 167 205 _c
167 161 180 126 207 101 _c
234 76 271 64 318 64 _c
364 64 401 76 428 102 _c
455 127 469 161 469 205 _c
469 249 455 283 429 308 _c
402 333 365 346 318 346 _c
219 388 _m
177 398 144 418 120 447 _c
96 476 85 511 85 553 _c
85 611 105 657 147 691 _c
188 725 245 742 318 742 _c
}_e{390 742 447 725 489 691 _c
530 657 551 611 551 553 _c
551 511 539 476 515 447 _c
491 418 459 398 417 388 _c
464 377 501 355 528 323 _c
554 291 568 251 568 205 _c
568 134 546 80 503 43 _c
459 5 398 -13 318 -13 _c
237 -13 175 5 132 43 _c
89 80 68 134 68 205 _c
68 251 81 291 108 323 _c
134 355 171 377 219 388 _c
183 544 _m
183 506 194 476 218 455 _c
}_e{242 434 275 424 318 424 _c
360 424 393 434 417 455 _c
441 476 453 506 453 544 _c
453 582 441 611 417 632 _c
393 653 360 664 318 664 _c
275 664 242 653 218 632 _c
194 611 183 582 183 544 _c
_cl}_e}_d
/A{684 0 8 0 676 729 _sc
342 632 _m
208 269 _l
476 269 _l
342 632 _l
286 729 _m
398 729 _l
676 0 _l
573 0 _l
507 187 _l
178 187 _l
112 0 _l
8 0 _l
286 729 _l
_cl}_d
/C{{698 0 56 -13 644 742 _sc
644 673 _m
644 569 _l
610 599 575 622 537 638 _c
499 653 460 661 418 661 _c
334 661 270 635 226 584 _c
182 533 160 460 160 364 _c
160 268 182 194 226 143 _c
270 92 334 67 418 67 _c
460 67 499 74 537 90 _c
575 105 610 128 644 159 _c
644 56 _l
609 32 572 15 534 4 _c
496 -7 455 -13 412 -13 _c
302 -13 215 20 151 87 _c
}_e{87 154 56 246 56 364 _c
56 481 87 573 151 641 _c
215 708 302 742 412 742 _c
456 742 497 736 535 725 _c
573 713 610 696 644 673 _c
_cl}_e}_d
/D{770 0 98 0 711 729 _sc
197 648 _m
197 81 _l
316 81 _l
416 81 490 103 537 149 _c
583 195 607 267 607 365 _c
607 463 583 534 537 580 _c
490 625 416 648 316 648 _c
197 648 _l
98 729 _m
301 729 _l
442 729 546 699 612 641 _c
678 582 711 490 711 365 _c
711 239 677 147 611 88 _c
545 29 441 0 301 0 _c
98 0 _l
98 729 _l
_cl}_d
/E{632 0 98 0 568 729 _sc
98 729 _m
559 729 _l
559 646 _l
197 646 _l
197 430 _l
544 430 _l
544 347 _l
197 347 _l
197 83 _l
568 83 _l
568 0 _l
98 0 _l
98 729 _l
_cl}_d
/H{752 0 98 0 654 729 _sc
98 729 _m
197 729 _l
197 430 _l
555 430 _l
555 729 _l
654 729 _l
654 0 _l
555 0 _l
555 347 _l
197 347 _l
197 0 _l
98 0 _l
98 729 _l
_cl}_d
/L{557 0 98 0 552 729 _sc
98 729 _m
197 729 _l
197 83 _l
552 83 _l
552 0 _l
98 0 _l
98 729 _l
_cl}_d
/M{863 0 98 0 765 729 _sc
98 729 _m
245 729 _l
431 233 _l
618 729 _l
765 729 _l
765 0 _l
669 0 _l
669 640 _l
481 140 _l
382 140 _l
194 640 _l
194 0 _l
98 0 _l
98 729 _l
_cl}_d
/N{748 0 98 0 650 729 _sc
98 729 _m
231 729 _l
554 119 _l
554 729 _l
650 729 _l
650 0 _l
517 0 _l
194 610 _l
194 0 _l
98 0 _l
98 729 _l
_cl}_d
/O{787 0 56 -13 731 742 _sc
394 662 _m
322 662 265 635 223 582 _c
181 528 160 456 160 364 _c
160 272 181 199 223 146 _c
265 92 322 66 394 66 _c
465 66 522 92 564 146 _c
606 199 627 272 627 364 _c
627 456 606 528 564 582 _c
522 635 465 662 394 662 _c
394 742 _m
496 742 577 707 639 639 _c
700 571 731 479 731 364 _c
731 248 700 157 639 89 _c
577 21 496 -13 394 -13 _c
291 -13 209 21 148 89 _c
86 157 56 248 56 364 _c
56 479 86 571 148 639 _c
209 707 291 742 394 742 _c
_cl}_d
/P{603 0 98 0 569 729 _sc
197 648 _m
197 374 _l
321 374 _l
367 374 402 385 427 409 _c
452 433 465 467 465 511 _c
465 555 452 588 427 612 _c
402 636 367 648 321 648 _c
197 648 _l
98 729 _m
321 729 _l
402 729 464 710 506 673 _c
548 636 569 582 569 511 _c
569 439 548 384 506 348 _c
464 311 402 293 321 293 _c
197 293 _l
197 0 _l
98 0 _l
98 729 _l
_cl}_d
/Q{{787 0 56 -128 731 742 _sc
394 662 _m
322 662 265 635 223 582 _c
181 528 160 456 160 364 _c
160 272 181 199 223 146 _c
265 92 322 66 394 66 _c
465 66 522 92 564 146 _c
606 199 627 272 627 364 _c
627 456 606 528 564 582 _c
522 635 465 662 394 662 _c
532 13 _m
662 -128 _l
543 -128 _l
435 -11 _l
424 -11 416 -12 410 -12 _c
404 -12 399 -13 394 -13 _c
291 -13 209 21 148 89 _c
}_e{86 157 56 248 56 364 _c
56 479 86 571 148 639 _c
209 707 291 742 394 742 _c
496 742 577 707 639 639 _c
700 571 731 479 731 364 _c
731 279 714 206 680 146 _c
646 86 596 41 532 13 _c
_cl}_e}_d
/R{{695 0 98 0 666 729 _sc
444 342 _m
465 334 486 319 506 296 _c
526 272 546 240 566 199 _c
666 0 _l
560 0 _l
467 187 _l
443 235 419 268 397 284 _c
374 300 343 308 304 308 _c
197 308 _l
197 0 _l
98 0 _l
98 729 _l
321 729 _l
404 729 466 711 507 677 _c
548 642 569 589 569 519 _c
569 473 558 434 537 404 _c
515 374 484 353 444 342 _c
197 648 _m
197 389 _l
321 389 _l
}_e{368 389 404 400 428 422 _c
452 444 465 476 465 519 _c
465 561 452 593 428 615 _c
404 637 368 648 321 648 _c
197 648 _l
_cl}_e}_d
/S{{635 0 66 -13 579 742 _sc
535 705 _m
535 609 _l
497 627 462 640 429 649 _c
395 657 363 662 333 662 _c
279 662 237 651 208 631 _c
179 610 165 580 165 542 _c
165 510 174 485 194 469 _c
213 452 250 439 304 429 _c
364 417 _l
437 403 491 378 526 343 _c
561 307 579 260 579 201 _c
579 130 555 77 508 41 _c
460 5 391 -13 300 -13 _c
265 -13 228 -9 189 -2 _c
}_e{150 5 110 16 69 32 _c
69 134 _l
109 111 148 94 186 83 _c
224 71 262 66 300 66 _c
356 66 399 77 430 99 _c
460 121 476 152 476 194 _c
476 230 465 258 443 278 _c
421 298 385 313 335 323 _c
275 335 _l
201 349 148 372 115 404 _c
82 435 66 478 66 534 _c
66 598 88 649 134 686 _c
179 723 242 742 322 742 _c
356 742 390 739 426 733 _c
461 727 497 717 535 705 _c
}_e{_cl}_e}_d
/T{611 0 -2 0 614 729 _sc
-2 729 _m
614 729 _l
614 646 _l
355 646 _l
355 0 _l
256 0 _l
256 646 _l
-2 646 _l
-2 729 _l
_cl}_d
/W{989 0 33 0 956 729 _sc
33 729 _m
133 729 _l
286 113 _l
439 729 _l
550 729 _l
703 113 _l
856 729 _l
956 729 _l
773 0 _l
649 0 _l
495 633 _l
340 0 _l
216 0 _l
33 729 _l
_cl}_d
/a{{613 0 60 -13 522 560 _sc
343 275 _m
270 275 220 266 192 250 _c
164 233 150 205 150 165 _c
150 133 160 107 181 89 _c
202 70 231 61 267 61 _c
317 61 357 78 387 114 _c
417 149 432 196 432 255 _c
432 275 _l
343 275 _l
522 312 _m
522 0 _l
432 0 _l
432 83 _l
411 49 385 25 355 10 _c
325 -5 287 -13 243 -13 _c
187 -13 142 2 109 33 _c
76 64 60 106 60 159 _c
}_e{60 220 80 266 122 298 _c
163 329 224 345 306 345 _c
432 345 _l
432 354 _l
432 395 418 427 391 450 _c
364 472 326 484 277 484 _c
245 484 215 480 185 472 _c
155 464 127 453 100 439 _c
100 522 _l
132 534 164 544 195 550 _c
226 556 256 560 286 560 _c
365 560 424 539 463 498 _c
502 457 522 395 522 312 _c
_cl}_e}_d
/b{{635 0 91 -13 580 760 _sc
487 273 _m
487 339 473 390 446 428 _c
418 466 381 485 334 485 _c
286 485 249 466 222 428 _c
194 390 181 339 181 273 _c
181 207 194 155 222 117 _c
249 79 286 61 334 61 _c
381 61 418 79 446 117 _c
473 155 487 207 487 273 _c
181 464 _m
199 496 223 520 252 536 _c
281 552 316 560 356 560 _c
422 560 476 533 518 481 _c
559 428 580 359 580 273 _c
}_e{580 187 559 117 518 65 _c
476 13 422 -13 356 -13 _c
316 -13 281 -5 252 10 _c
223 25 199 49 181 82 _c
181 0 _l
91 0 _l
91 760 _l
181 760 _l
181 464 _l
_cl}_e}_d
/c{{550 0 55 -13 488 560 _sc
488 526 _m
488 442 _l
462 456 437 466 411 473 _c
385 480 360 484 334 484 _c
276 484 230 465 198 428 _c
166 391 150 339 150 273 _c
150 206 166 154 198 117 _c
230 80 276 62 334 62 _c
360 62 385 65 411 72 _c
437 79 462 90 488 104 _c
488 21 _l
462 9 436 0 410 -5 _c
383 -10 354 -13 324 -13 _c
242 -13 176 12 128 64 _c
}_e{79 115 55 185 55 273 _c
55 362 79 432 128 483 _c
177 534 244 560 330 560 _c
358 560 385 557 411 551 _c
437 545 463 537 488 526 _c
_cl}_e}_d
/e{{615 0 55 -13 562 560 _sc
562 296 _m
562 252 _l
149 252 _l
153 190 171 142 205 110 _c
238 78 284 62 344 62 _c
378 62 412 66 444 74 _c
476 82 509 95 541 113 _c
541 28 _l
509 14 476 3 442 -3 _c
408 -9 373 -13 339 -13 _c
251 -13 182 12 131 62 _c
80 112 55 181 55 268 _c
55 357 79 428 127 481 _c
175 533 241 560 323 560 _c
397 560 455 536 498 489 _c
}_e{540 441 562 377 562 296 _c
472 322 _m
471 371 457 410 431 440 _c
404 469 368 484 324 484 _c
274 484 234 469 204 441 _c
174 413 156 373 152 322 _c
472 322 _l
_cl}_e}_d
/f{352 0 23 0 371 760 _sc
371 760 _m
371 685 _l
285 685 _l
253 685 230 678 218 665 _c
205 652 199 629 199 595 _c
199 547 _l
347 547 _l
347 477 _l
199 477 _l
199 0 _l
109 0 _l
109 477 _l
23 477 _l
23 547 _l
109 547 _l
109 585 _l
109 645 123 690 151 718 _c
179 746 224 760 286 760 _c
371 760 _l
_cl}_d
/g{{635 0 55 -207 544 560 _sc
454 280 _m
454 344 440 395 414 431 _c
387 467 349 485 301 485 _c
253 485 215 467 188 431 _c
161 395 148 344 148 280 _c
148 215 161 165 188 129 _c
215 93 253 75 301 75 _c
349 75 387 93 414 129 _c
440 165 454 215 454 280 _c
544 68 _m
544 -24 523 -93 482 -139 _c
440 -184 377 -207 292 -207 _c
260 -207 231 -204 203 -200 _c
175 -195 147 -188 121 -178 _c
}_e{121 -91 _l
147 -105 173 -115 199 -122 _c
225 -129 251 -133 278 -133 _c
336 -133 380 -117 410 -87 _c
439 -56 454 -10 454 52 _c
454 96 _l
435 64 411 40 382 24 _c
353 8 319 0 279 0 _c
211 0 157 25 116 76 _c
75 127 55 195 55 280 _c
55 364 75 432 116 483 _c
157 534 211 560 279 560 _c
319 560 353 552 382 536 _c
411 520 435 496 454 464 _c
454 547 _l
544 547 _l
}_e{544 68 _l
_cl}_e}_d
/h{634 0 91 0 549 760 _sc
549 330 _m
549 0 _l
459 0 _l
459 327 _l
459 379 448 417 428 443 _c
408 469 378 482 338 482 _c
289 482 251 466 223 435 _c
195 404 181 362 181 309 _c
181 0 _l
91 0 _l
91 760 _l
181 760 _l
181 462 _l
202 494 227 519 257 535 _c
286 551 320 560 358 560 _c
420 560 468 540 500 501 _c
532 462 549 405 549 330 _c
_cl}_d
/i{278 0 94 0 184 760 _sc
94 547 _m
184 547 _l
184 0 _l
94 0 _l
94 547 _l
94 760 _m
184 760 _l
184 646 _l
94 646 _l
94 760 _l
_cl}_d
/l{278 0 94 0 184 760 _sc
94 760 _m
184 760 _l
184 0 _l
94 0 _l
94 760 _l
_cl}_d
/m{{974 0 91 0 889 560 _sc
520 442 _m
542 482 569 511 600 531 _c
631 550 668 560 711 560 _c
767 560 811 540 842 500 _c
873 460 889 403 889 330 _c
889 0 _l
799 0 _l
799 327 _l
799 379 789 418 771 444 _c
752 469 724 482 686 482 _c
639 482 602 466 575 435 _c
548 404 535 362 535 309 _c
535 0 _l
445 0 _l
445 327 _l
445 379 435 418 417 444 _c
398 469 369 482 331 482 _c
}_e{285 482 248 466 221 435 _c
194 404 181 362 181 309 _c
181 0 _l
91 0 _l
91 547 _l
181 547 _l
181 462 _l
201 495 226 520 255 536 _c
283 552 317 560 357 560 _c
397 560 430 550 458 530 _c
486 510 506 480 520 442 _c
_cl}_e}_d
/n{634 0 91 0 549 560 _sc
549 330 _m
549 0 _l
459 0 _l
459 327 _l
459 379 448 417 428 443 _c
408 469 378 482 338 482 _c
289 482 251 466 223 435 _c
195 404 181 362 181 309 _c
181 0 _l
91 0 _l
91 547 _l
181 547 _l
181 462 _l
202 494 227 519 257 535 _c
286 551 320 560 358 560 _c
420 560 468 540 500 501 _c
532 462 549 405 549 330 _c
_cl}_d
/o{612 0 55 -13 557 560 _sc
306 484 _m
258 484 220 465 192 427 _c
164 389 150 338 150 273 _c
150 207 163 156 191 118 _c
219 80 257 62 306 62 _c
354 62 392 80 420 118 _c
448 156 462 207 462 273 _c
462 337 448 389 420 427 _c
392 465 354 484 306 484 _c
306 560 _m
384 560 445 534 490 484 _c
534 433 557 363 557 273 _c
557 183 534 113 490 63 _c
445 12 384 -13 306 -13 _c
227 -13 165 12 121 63 _c
77 113 55 183 55 273 _c
55 363 77 433 121 484 _c
165 534 227 560 306 560 _c
_cl}_d
/p{{635 0 91 -207 580 560 _sc
181 82 _m
181 -207 _l
91 -207 _l
91 547 _l
181 547 _l
181 464 _l
199 496 223 520 252 536 _c
281 552 316 560 356 560 _c
422 560 476 533 518 481 _c
559 428 580 359 580 273 _c
580 187 559 117 518 65 _c
476 13 422 -13 356 -13 _c
316 -13 281 -5 252 10 _c
223 25 199 49 181 82 _c
487 273 _m
487 339 473 390 446 428 _c
418 466 381 485 334 485 _c
}_e{286 485 249 466 222 428 _c
194 390 181 339 181 273 _c
181 207 194 155 222 117 _c
249 79 286 61 334 61 _c
381 61 418 79 446 117 _c
473 155 487 207 487 273 _c
_cl}_e}_d
/r{411 0 91 0 411 560 _sc
411 463 _m
401 469 390 473 378 476 _c
366 478 353 480 339 480 _c
288 480 249 463 222 430 _c
194 397 181 350 181 288 _c
181 0 _l
91 0 _l
91 547 _l
181 547 _l
181 462 _l
199 495 224 520 254 536 _c
284 552 321 560 365 560 _c
371 560 378 559 386 559 _c
393 558 401 557 411 555 _c
411 463 _l
_cl}_d
/s{{521 0 54 -13 472 560 _sc
443 531 _m
443 446 _l
417 458 391 468 364 475 _c
336 481 308 485 279 485 _c
234 485 200 478 178 464 _c
156 450 145 430 145 403 _c
145 382 153 366 169 354 _c
185 342 217 330 265 320 _c
296 313 _l
360 299 405 279 432 255 _c
458 230 472 195 472 151 _c
472 100 452 60 412 31 _c
372 1 316 -13 246 -13 _c
216 -13 186 -10 154 -5 _c
}_e{122 0 89 8 54 20 _c
54 113 _l
87 95 120 82 152 74 _c
184 65 216 61 248 61 _c
290 61 323 68 346 82 _c
368 96 380 117 380 144 _c
380 168 371 187 355 200 _c
339 213 303 226 247 238 _c
216 245 _l
160 257 119 275 95 299 _c
70 323 58 356 58 399 _c
58 450 76 490 112 518 _c
148 546 200 560 268 560 _c
301 560 332 557 362 552 _c
391 547 418 540 443 531 _c
}_e{_cl}_e}_d
/t{392 0 27 0 368 702 _sc
183 702 _m
183 547 _l
368 547 _l
368 477 _l
183 477 _l
183 180 _l
183 135 189 106 201 94 _c
213 81 238 75 276 75 _c
368 75 _l
368 0 _l
276 0 _l
206 0 158 13 132 39 _c
106 65 93 112 93 180 _c
93 477 _l
27 477 _l
27 547 _l
93 547 _l
93 702 _l
183 702 _l
_cl}_d
/u{634 0 85 -13 543 560 _sc
85 216 _m
85 547 _l
175 547 _l
175 219 _l
175 167 185 129 205 103 _c
225 77 255 64 296 64 _c
344 64 383 79 411 110 _c
439 141 453 183 453 237 _c
453 547 _l
543 547 _l
543 0 _l
453 0 _l
453 84 _l
431 50 405 26 377 10 _c
348 -5 315 -13 277 -13 _c
214 -13 166 6 134 45 _c
101 83 85 140 85 216 _c
311 560 _m
311 560 _l
_cl}_d
/w{818 0 42 0 776 547 _sc
42 547 _m
132 547 _l
244 120 _l
356 547 _l
462 547 _l
574 120 _l
686 547 _l
776 547 _l
633 0 _l
527 0 _l
409 448 _l
291 0 _l
185 0 _l
42 547 _l
_cl}_d
/x{592 0 29 0 559 547 _sc
549 547 _m
351 281 _l
559 0 _l
453 0 _l
294 215 _l
135 0 _l
29 0 _l
241 286 _l
47 547 _l
153 547 _l
298 352 _l
443 547 _l
549 547 _l
_cl}_d
end readonly def

/BuildGlyph
 {exch begin
 CharStrings exch
 2 copy known not{pop /.notdef}if
 true 3 1 roll get exec
 end}_d

/BuildChar {
 1 index /Encoding get exch get
 1 index /BuildGlyph get exec
}_d

FontName currentdict end definefont pop
%!PS-Adobe-3.0 Resource-Font
%%Title: DejaVu Sans Bold
%%Copyright: Copyright (c) 2003 by Bitstream, Inc. All Rights Reserved. Copyright (c) 2006 by Tavmjong Bah. All Rights Reserved. DejaVu changes are in public domain 
%%Creator: Converted from TrueType to type 3 by PPR
25 dict begin
/_d{bind def}bind def
/_m{moveto}_d
/_l{lineto}_d
/_cl{closepath eofill}_d
/_c{curveto}_d
/_sc{7 -1 roll{setcachedevice}{pop pop pop pop pop pop}ifelse}_d
/_e{exec}_d
/FontName /DejaVuSans-Bold def
/PaintType 0 def
/FontMatrix[.001 0 0 .001 0 0]def
/FontBBox[-1069 -415 1975 1174]def
/FontType 3 def
/Encoding [ /period /zero /one /two /three /four /five /six /seven /X ] def
/FontInfo 10 dict dup begin
/FamilyName (DejaVu Sans) def
/FullName (DejaVu Sans Bold) def
/Notice (Copyright (c) 2003 by Bitstream, Inc. All Rights Reserved. Copyright (c) 2006 by Tavmjong Bah. All Rights Reserved. DejaVu changes are in public domain ) def
/Weight (Bold) def
/Version (Version 2.35) def
/ItalicAngle 0.0 def
/isFixedPitch false def
/UnderlinePosition -130 def
/UnderlineThickness 90 def
end readonly def
/CharStrings 11 dict dup begin
/.notdef 0 def
/period{380 0 102 0 278 189 _sc
102 189 _m
278 189 _l
278 0 _l
102 0 _l
102 189 _l
_cl}_d
/zero{696 0 48 -13 648 742 _sc
460 365 _m
460 456 451 520 434 558 _c
417 595 388 614 348 614 _c
308 614 279 595 262 558 _c
244 520 236 456 236 365 _c
236 273 244 208 262 170 _c
279 132 308 114 348 114 _c
388 114 416 132 434 170 _c
451 208 460 273 460 365 _c
648 364 _m
648 243 622 150 570 85 _c
518 19 444 -13 348 -13 _c
252 -13 178 19 126 85 _c
74 150 48 243 48 364 _c
48 484 74 577 126 643 _c
178 709 252 742 348 742 _c
444 742 518 709 570 643 _c
622 577 648 484 648 364 _c
_cl}_d
/one{696 0 113 0 627 729 _sc
117 130 _m
283 130 _l
283 601 _l
113 566 _l
113 694 _l
282 729 _l
461 729 _l
461 130 _l
627 130 _l
627 0 _l
117 0 _l
117 130 _l
_cl}_d
/two{696 0 79 0 609 742 _sc
288 138 _m
609 138 _l
609 0 _l
79 0 _l
79 138 _l
345 373 _l
369 394 386 415 398 436 _c
409 456 415 478 415 500 _c
415 534 403 561 380 582 _c
357 603 327 614 289 614 _c
259 614 227 607 193 595 _c
158 582 121 563 81 539 _c
81 699 _l
123 713 165 723 207 731 _c
248 738 288 742 328 742 _c
415 742 483 722 531 684 _c
579 646 604 592 604 524 _c
604 484 593 446 573 412 _c
552 378 509 332 444 275 _c
288 138 _l
_cl}_d
/three{{696 0 67 -13 616 742 _sc
466 393 _m
515 380 552 358 578 327 _c
603 295 616 255 616 207 _c
616 135 588 80 533 43 _c
477 5 397 -13 291 -13 _c
253 -13 216 -10 178 -4 _c
140 1 103 10 67 22 _c
67 167 _l
102 149 137 136 172 127 _c
206 118 240 114 274 114 _c
324 114 362 122 388 140 _c
414 157 428 182 428 214 _c
428 247 414 272 387 289 _c
360 306 320 315 267 315 _c
}_e{192 315 _l
192 436 _l
271 436 _l
318 436 353 443 376 458 _c
399 472 411 495 411 526 _c
411 554 399 575 377 591 _c
355 606 323 614 282 614 _c
252 614 221 610 190 603 _c
159 596 128 586 98 573 _c
98 711 _l
135 721 172 729 208 734 _c
244 739 280 742 316 742 _c
410 742 481 726 528 695 _c
575 664 599 617 599 555 _c
599 512 587 477 565 450 _c
543 423 510 404 466 393 _c
_cl}_e}_d
/four{696 0 45 0 650 729 _sc
368 574 _m
162 269 _l
368 269 _l
368 574 _l
337 729 _m
546 729 _l
546 269 _l
650 269 _l
650 133 _l
546 133 _l
546 0 _l
368 0 _l
368 133 _l
45 133 _l
45 294 _l
337 729 _l
_cl}_d
/five{{696 0 77 -13 626 729 _sc
106 729 _m
573 729 _l
573 591 _l
256 591 _l
256 478 _l
270 482 284 485 299 487 _c
313 489 328 490 344 490 _c
433 490 502 467 552 423 _c
601 379 626 317 626 238 _c
626 159 599 97 545 53 _c
491 9 416 -13 321 -13 _c
279 -13 238 -9 198 -1 _c
157 6 117 18 77 34 _c
77 182 _l
117 159 154 142 190 131 _c
226 119 259 114 291 114 _c
}_e{336 114 372 125 398 147 _c
424 169 438 200 438 238 _c
438 276 424 306 398 328 _c
372 350 336 362 291 362 _c
263 362 234 358 204 351 _c
174 344 141 333 106 319 _c
106 729 _l
_cl}_e}_d
/six{{696 0 62 -13 642 741 _sc
362 360 _m
329 360 304 349 288 328 _c
271 306 263 274 263 232 _c
263 189 271 157 288 136 _c
304 114 329 104 362 104 _c
395 104 420 114 436 136 _c
452 157 461 189 461 232 _c
461 274 452 306 436 328 _c
420 349 395 360 362 360 _c
594 710 _m
594 575 _l
563 589 534 600 507 607 _c
479 614 453 618 427 618 _c
371 618 327 602 296 571 _c
}_e{264 540 246 494 241 433 _c
262 449 285 461 311 469 _c
336 477 363 481 393 481 _c
467 481 527 459 573 415 _c
619 371 642 314 642 244 _c
642 166 616 103 565 57 _c
514 10 446 -13 360 -13 _c
265 -13 192 18 140 82 _c
88 146 62 236 62 354 _c
62 474 92 569 153 638 _c
213 706 297 741 403 741 _c
436 741 468 738 500 733 _c
532 728 563 720 594 710 _c
_cl}_e}_d
/seven{696 0 67 0 616 729 _sc
67 729 _m
616 729 _l
616 623 _l
332 0 _l
149 0 _l
418 591 _l
67 591 _l
67 729 _l
_cl}_d
/X{771 0 19 0 751 729 _sc
498 372 _m
751 0 _l
555 0 _l
385 249 _l
216 0 _l
19 0 _l
272 372 _l
29 729 _l
225 729 _l
385 494 _l
544 729 _l
741 729 _l
498 372 _l
_cl}_d
end readonly def

/BuildGlyph
 {exch begin
 CharStrings exch
 2 copy known not{pop /.notdef}if
 true 3 1 roll get exec
 end}_d

/BuildChar {
 1 index /Encoding get exch get
 1 index /BuildGlyph get exec
}_d

FontName currentdict end definefont pop
end
%%EndProlog
mpldict begin
10.305 105.473 translate
591.39 581.055 0 0 clipbox
gsave
0 0 m
591.39 0 l
591.39 581.054679 l
0 581.054679 l
cl
1.000 setgray
fill
grestore
gsave
46.95 322.871875 m
280.19 322.871875 l
280.19 570.831875 l
46.95 570.831875 l
cl
1.000 setgray
fill
grestore
0.800 setlinewidth
1 setlinejoin
0 setlinecap
[] 0 setdash
0.000 setgray
gsave
/o {
gsave
newpath
translate
0.8 setlinewidth
1 setlinejoin
0 setlinecap
0 0 m
0 -3.5 l

gsave
0.000 setgray
fill
grestore
stroke
grestore
} bind def
70.274 322.872 o
grestore
/DejaVuSans findfont
10.000 scalefont
setfont
gsave
59.063063 308.278125 translate
0.000000 rotate
0.000000 0.000000 m /M glyphshow
8.627930 0.000000 m /R glyphshow
15.576172 0.000000 m /A glyphshow
grestore
gsave
/o {
gsave
newpath
translate
0.8 setlinewidth
1 setlinejoin
0 setlinecap
0 0 m
0 -3.5 l

gsave
0.000 setgray
fill
grestore
stroke
grestore
} bind def
116.922 322.872 o
grestore
gsave
91.586063 308.278125 translate
0.000000 rotate
0.000000 0.000000 m /M glyphshow
8.627930 0.000000 m /R glyphshow
15.576172 0.000000 m /A glyphshow
22.416992 0.000000 m /O glyphshow
30.288086 0.000000 m /n glyphshow
36.625977 0.000000 m /e glyphshow
42.778320 0.000000 m /Q glyphshow
grestore
gsave
/o {
gsave
newpath
translate
0.8 setlinewidth
1 setlinejoin
0 setlinecap
0 0 m
0 -3.5 l

gsave
0.000 setgray
fill
grestore
stroke
grestore
} bind def
163.57 322.872 o
grestore
gsave
143.710625 308.278125 translate
0.000000 rotate
0.000000 0.000000 m /W glyphshow
9.887695 0.000000 m /A glyphshow
16.728516 0.000000 m /H glyphshow
24.248047 0.000000 m /i glyphshow
27.026367 0.000000 m /g glyphshow
33.374023 0.000000 m /h glyphshow
grestore
gsave
/o {
gsave
newpath
translate
0.8 setlinewidth
1 setlinejoin
0 setlinecap
0 0 m
0 -3.5 l

gsave
0.000 setgray
fill
grestore
stroke
grestore
} bind def
210.218 322.872 o
grestore
gsave
191.905500 308.278125 translate
0.000000 rotate
0.000000 0.000000 m /W glyphshow
9.887695 0.000000 m /A glyphshow
16.728516 0.000000 m /L glyphshow
22.299805 0.000000 m /o glyphshow
28.417969 0.000000 m /w glyphshow
grestore
gsave
/o {
gsave
newpath
translate
0.8 setlinewidth
1 setlinejoin
0 setlinecap
0 0 m
0 -3.5 l

gsave
0.000 setgray
fill
grestore
stroke
grestore
} bind def
256.866 322.872 o
grestore
gsave
238.905063 308.278125 translate
0.000000 rotate
0.000000 0.000000 m /Q glyphshow
7.871094 0.000000 m /D glyphshow
15.571289 0.000000 m /t glyphshow
19.492188 0.000000 m /r glyphshow
23.603516 0.000000 m /e glyphshow
29.755859 0.000000 m /e glyphshow
grestore
2 setlinecap
0.690 setgray
gsave
233.2 248 46.95 322.9 clipbox
46.95 332.055579 m
280.19 332.055579 l
stroke
grestore
0 setlinecap
0.000 setgray
gsave
/o {
gsave
newpath
translate
0.8 setlinewidth
1 setlinejoin
0 setlinecap
0 0 m
-3.5 0 l

gsave
0.000 setgray
fill
grestore
stroke
grestore
} bind def
46.95 332.056 o
grestore
gsave
33.590625 328.258704 translate
0.000000 rotate
0.000000 0.000000 m /zero glyphshow
grestore
2 setlinecap
0.690 setgray
gsave
233.2 248 46.95 322.9 clipbox
46.95 368.790394 m
280.19 368.790394 l
stroke
grestore
0 setlinecap
0.000 setgray
gsave
/o {
gsave
newpath
translate
0.8 setlinewidth
1 setlinejoin
0 setlinecap
0 0 m
-3.5 0 l

gsave
0.000 setgray
fill
grestore
stroke
grestore
} bind def
46.95 368.79 o
grestore
gsave
27.231250 364.993519 translate
0.000000 rotate
0.000000 0.000000 m /two glyphshow
6.362305 0.000000 m /zero glyphshow
grestore
2 setlinecap
0.690 setgray
gsave
233.2 248 46.95 322.9 clipbox
46.95 405.525208 m
280.19 405.525208 l
stroke
grestore
0 setlinecap
0.000 setgray
gsave
/o {
gsave
newpath
translate
0.8 setlinewidth
1 setlinejoin
0 setlinecap
0 0 m
-3.5 0 l

gsave
0.000 setgray
fill
grestore
stroke
grestore
} bind def
46.95 405.525 o
grestore
gsave
27.231250 401.728333 translate
0.000000 rotate
0.000000 0.000000 m /four glyphshow
6.362305 0.000000 m /zero glyphshow
grestore
2 setlinecap
0.690 setgray
gsave
233.2 248 46.95 322.9 clipbox
46.95 442.260023 m
280.19 442.260023 l
stroke
grestore
0 setlinecap
0.000 setgray
gsave
/o {
gsave
newpath
translate
0.8 setlinewidth
1 setlinejoin
0 setlinecap
0 0 m
-3.5 0 l

gsave
0.000 setgray
fill
grestore
stroke
grestore
} bind def
46.95 442.26 o
grestore
gsave
27.231250 438.463148 translate
0.000000 rotate
0.000000 0.000000 m /six glyphshow
6.362305 0.000000 m /zero glyphshow
grestore
2 setlinecap
0.690 setgray
gsave
233.2 248 46.95 322.9 clipbox
46.95 478.994838 m
280.19 478.994838 l
stroke
grestore
0 setlinecap
0.000 setgray
gsave
/o {
gsave
newpath
translate
0.8 setlinewidth
1 setlinejoin
0 setlinecap
0 0 m
-3.5 0 l

gsave
0.000 setgray
fill
grestore
stroke
grestore
} bind def
46.95 478.995 o
grestore
gsave
27.231250 475.197963 translate
0.000000 rotate
0.000000 0.000000 m /eight glyphshow
6.362305 0.000000 m /zero glyphshow
grestore
2 setlinecap
0.690 setgray
gsave
233.2 248 46.95 322.9 clipbox
46.95 515.729653 m
280.19 515.729653 l
stroke
grestore
0 setlinecap
0.000 setgray
gsave
/o {
gsave
newpath
translate
0.8 setlinewidth
1 setlinejoin
0 setlinecap
0 0 m
-3.5 0 l

gsave
0.000 setgray
fill
grestore
stroke
grestore
} bind def
46.95 515.73 o
grestore
gsave
20.871875 511.932778 translate
0.000000 rotate
0.000000 0.000000 m /one glyphshow
6.362305 0.000000 m /zero glyphshow
12.724609 0.000000 m /zero glyphshow
grestore
2 setlinecap
0.690 setgray
gsave
233.2 248 46.95 322.9 clipbox
46.95 552.464468 m
280.19 552.464468 l
stroke
grestore
0 setlinecap
0.000 setgray
gsave
/o {
gsave
newpath
translate
0.8 setlinewidth
1 setlinejoin
0 setlinecap
0 0 m
-3.5 0 l

gsave
0.000 setgray
fill
grestore
stroke
grestore
} bind def
46.95 552.464 o
grestore
gsave
20.871875 548.667593 translate
0.000000 rotate
0.000000 0.000000 m /one glyphshow
6.362305 0.000000 m /two glyphshow
12.724609 0.000000 m /zero glyphshow
grestore
gsave
14.793750 403.203438 translate
90.000000 rotate
0.000000 0.000000 m /P glyphshow
6.030273 0.000000 m /l glyphshow
8.808594 0.000000 m /a glyphshow
14.936523 0.000000 m /n glyphshow
21.274414 0.000000 m /n glyphshow
27.612305 0.000000 m /i glyphshow
30.390625 0.000000 m /n glyphshow
36.728516 0.000000 m /g glyphshow
43.076172 0.000000 m /space glyphshow
46.254883 0.000000 m /T glyphshow
52.363281 0.000000 m /i glyphshow
55.141602 0.000000 m /m glyphshow
64.882812 0.000000 m /e glyphshow
71.035156 0.000000 m /space glyphshow
74.213867 0.000000 m /parenleft glyphshow
78.115234 0.000000 m /s glyphshow
83.325195 0.000000 m /parenright glyphshow
grestore
1.000 setlinewidth
2 setlinecap
gsave
233.2 248 46.95 322.9 clipbox
70.274 332.214457 m
70.274 332.061089 l
stroke
grestore
gsave
233.2 248 46.95 322.9 clipbox
70.274 335.624825 m
70.274 340.646015 l
stroke
grestore
gsave
233.2 248 46.95 322.9 clipbox
64.443 332.061089 m
76.105 332.061089 l
stroke
grestore
gsave
233.2 248 46.95 322.9 clipbox
64.443 340.646015 m
76.105 340.646015 l
stroke
grestore
0 setlinecap
gsave
233.2 248 46.95 322.9 clipbox
/o {
gsave
newpath
translate
1.0 setlinewidth
1 setlinejoin
0 setlinecap
0 -3 m
0.795609 -3 1.55874 -2.683901 2.12132 -2.12132 c
2.683901 -1.55874 3 -0.795609 3 0 c
3 0.795609 2.683901 1.55874 2.12132 2.12132 c
1.55874 2.683901 0.795609 3 0 3 c
-0.795609 3 -1.55874 2.683901 -2.12132 2.12132 c
-2.683901 1.55874 -3 0.795609 -3 0 c
-3 -0.795609 -2.683901 -1.55874 -2.12132 -2.12132 c
-1.55874 -2.683901 -0.795609 -3 0 -3 c
cl

gsave
grestore
stroke
grestore
} bind def
70.274 418.52 o
70.274 362.784 o
70.274 385.046 o
70.274 360.176 o
70.274 343.91 o
70.274 354.94 o
70.274 367.124 o
70.274 348.746 o
70.274 347.677 o
70.274 345.388 o
70.274 369.751 o
70.274 397.111 o
70.274 393.757 o
70.274 358.303 o
70.274 392.995 o
70.274 377.579 o
70.274 342.714 o
70.274 450.494 o
70.274 398.939 o
70.274 358.703 o
70.274 344.509 o
70.274 341.017 o
70.274 341.577 o
grestore
2 setlinecap
gsave
233.2 248 46.95 322.9 clipbox
116.922 332.616244 m
116.922 332.064762 l
stroke
grestore
gsave
233.2 248 46.95 322.9 clipbox
116.922 364.868034 m
116.922 402.544178 l
stroke
grestore
gsave
233.2 248 46.95 322.9 clipbox
111.091 332.064762 m
122.753 332.064762 l
stroke
grestore
gsave
233.2 248 46.95 322.9 clipbox
111.091 402.544178 m
122.753 402.544178 l
stroke
grestore
0 setlinecap
gsave
233.2 248 46.95 322.9 clipbox
/o {
gsave
newpath
translate
1.0 setlinewidth
1 setlinejoin
0 setlinecap
0 -3 m
0.795609 -3 1.55874 -2.683901 2.12132 -2.12132 c
2.683901 -1.55874 3 -0.795609 3 0 c
3 0.795609 2.683901 1.55874 2.12132 2.12132 c
1.55874 2.683901 0.795609 3 0 3 c
-0.795609 3 -1.55874 2.683901 -2.12132 2.12132 c
-2.683901 1.55874 -3 0.795609 -3 0 c
-3 -0.795609 -2.683901 -1.55874 -2.12132 -2.12132 c
-1.55874 -2.683901 -0.795609 -3 0 -3 c
cl

gsave
grestore
stroke
grestore
} bind def
116.922 418.831 o
116.922 428.481 o
116.922 545.252 o
116.922 474.84 o
116.922 447.691 o
116.922 493.887 o
116.922 495.704 o
116.922 429.796 o
116.922 439.391 o
116.922 413.776 o
116.922 512.335 o
grestore
2 setlinecap
gsave
233.2 248 46.95 322.9 clipbox
163.57 332.686499 m
163.57 332.070273 l
stroke
grestore
gsave
233.2 248 46.95 322.9 clipbox
163.57 363.987776 m
163.57 405.523372 l
stroke
grestore
gsave
233.2 248 46.95 322.9 clipbox
157.739 332.070273 m
169.401 332.070273 l
stroke
grestore
gsave
233.2 248 46.95 322.9 clipbox
157.739 405.523372 m
169.401 405.523372 l
stroke
grestore
0 setlinecap
gsave
233.2 248 46.95 322.9 clipbox
/o {
gsave
newpath
translate
1.0 setlinewidth
1 setlinejoin
0 setlinecap
0 -3 m
0.795609 -3 1.55874 -2.683901 2.12132 -2.12132 c
2.683901 -1.55874 3 -0.795609 3 0 c
3 0.795609 2.683901 1.55874 2.12132 2.12132 c
1.55874 2.683901 0.795609 3 0 3 c
-0.795609 3 -1.55874 2.683901 -2.12132 2.12132 c
-2.683901 1.55874 -3 0.795609 -3 0 c
-3 -0.795609 -2.683901 -1.55874 -2.12132 -2.12132 c
-1.55874 -2.683901 -0.795609 -3 0 -3 c
cl

gsave
grestore
stroke
grestore
} bind def
163.57 419.791 o
163.57 415.401 o
163.57 539.168 o
163.57 471.409 o
163.57 449.478 o
163.57 487.977 o
163.57 490.632 o
163.57 427.19 o
163.57 434.751 o
163.57 411.329 o
163.57 482.865 o
grestore
2 setlinecap
gsave
233.2 248 46.95 322.9 clipbox
210.218 332.150171 m
210.218 332.059252 l
stroke
grestore
gsave
233.2 248 46.95 322.9 clipbox
210.218 333.094256 m
210.218 334.507628 l
stroke
grestore
gsave
233.2 248 46.95 322.9 clipbox
204.387 332.059252 m
216.049 332.059252 l
stroke
grestore
gsave
233.2 248 46.95 322.9 clipbox
204.387 334.507628 m
216.049 334.507628 l
stroke
grestore
0 setlinecap
gsave
233.2 248 46.95 322.9 clipbox
/o {
gsave
newpath
translate
1.0 setlinewidth
1 setlinejoin
0 setlinecap
0 -3 m
0.795609 -3 1.55874 -2.683901 2.12132 -2.12132 c
2.683901 -1.55874 3 -0.795609 3 0 c
3 0.795609 2.683901 1.55874 2.12132 2.12132 c
1.55874 2.683901 0.795609 3 0 3 c
-0.795609 3 -1.55874 2.683901 -2.12132 2.12132 c
-2.683901 1.55874 -3 0.795609 -3 0 c
-3 -0.795609 -2.683901 -1.55874 -2.12132 -2.12132 c
-1.55874 -2.683901 -0.795609 -3 0 -3 c
cl

gsave
grestore
stroke
grestore
} bind def
210.218 334.748 o
210.218 335.108 o
210.218 336.513 o
210.218 335.446 o
210.218 340.207 o
210.218 338.67 o
210.218 334.844 o
210.218 335.953 o
210.218 335.507 o
grestore
2 setlinecap
gsave
233.2 248 46.95 322.9 clipbox
256.866 332.15063 m
256.866 332.055579 l
stroke
grestore
gsave
233.2 248 46.95 322.9 clipbox
256.866 332.795326 m
256.866 333.73987 l
stroke
grestore
gsave
233.2 248 46.95 322.9 clipbox
251.035 332.055579 m
262.697 332.055579 l
stroke
grestore
gsave
233.2 248 46.95 322.9 clipbox
251.035 333.73987 m
262.697 333.73987 l
stroke
grestore
0 setlinecap
gsave
233.2 248 46.95 322.9 clipbox
/o {
gsave
newpath
translate
1.0 setlinewidth
1 setlinejoin
0 setlinecap
0 -3 m
0.795609 -3 1.55874 -2.683901 2.12132 -2.12132 c
2.683901 -1.55874 3 -0.795609 3 0 c
3 0.795609 2.683901 1.55874 2.12132 2.12132 c
1.55874 2.683901 0.795609 3 0 3 c
-0.795609 3 -1.55874 2.683901 -2.12132 2.12132 c
-2.683901 1.55874 -3 0.795609 -3 0 c
-3 -0.795609 -2.683901 -1.55874 -2.12132 -2.12132 c
-1.55874 -2.683901 -0.795609 -3 0 -3 c
cl

gsave
grestore
stroke
grestore
} bind def
256.866 333.843 o
256.866 333.767 o
256.866 333.969 o
256.866 334.133 o
256.866 333.922 o
256.866 335.986 o
grestore
0 setlinejoin
[] 0 setdash
gsave
233.2 248 46.95 322.9 clipbox
58.612 332.214457 m
81.936 332.214457 l
81.936 335.624825 l
58.612 335.624825 l
58.612 332.214457 l
cl
gsave
0.122 0.467 0.706 setrgbcolor
fill
grestore
stroke
grestore
gsave
233.2 248 46.95 322.9 clipbox
105.26 332.616244 m
128.584 332.616244 l
128.584 364.868034 l
105.26 364.868034 l
105.26 332.616244 l
cl
gsave
0.122 0.467 0.706 setrgbcolor
fill
grestore
stroke
grestore
gsave
233.2 248 46.95 322.9 clipbox
151.908 332.686499 m
175.232 332.686499 l
175.232 363.987776 l
151.908 363.987776 l
151.908 332.686499 l
cl
gsave
0.122 0.467 0.706 setrgbcolor
fill
grestore
stroke
grestore
gsave
233.2 248 46.95 322.9 clipbox
198.556 332.150171 m
221.88 332.150171 l
221.88 333.094256 l
198.556 333.094256 l
198.556 332.150171 l
cl
gsave
0.122 0.467 0.706 setrgbcolor
fill
grestore
stroke
grestore
gsave
233.2 248 46.95 322.9 clipbox
245.204 332.15063 m
268.528 332.15063 l
268.528 332.795326 l
245.204 332.795326 l
245.204 332.15063 l
cl
gsave
0.122 0.467 0.706 setrgbcolor
fill
grestore
stroke
grestore
1 setlinejoin
2 setlinecap
[] 0 setdash
1.000 0.498 0.055 setrgbcolor
gsave
233.2 248 46.95 322.9 clipbox
58.612 332.585478 m
81.936 332.585478 l
stroke
grestore
gsave
233.2 248 46.95 322.9 clipbox
105.26 340.544076 m
128.584 340.544076 l
stroke
grestore
gsave
233.2 248 46.95 322.9 clipbox
151.908 340.420096 m
175.232 340.420096 l
stroke
grestore
gsave
233.2 248 46.95 322.9 clipbox
198.556 332.45507 m
221.88 332.45507 l
stroke
grestore
gsave
233.2 248 46.95 322.9 clipbox
245.204 332.380682 m
268.528 332.380682 l
stroke
grestore
0.800 setlinewidth
0 setlinejoin
[] 0 setdash
0.000 setgray
gsave
46.95 322.871875 m
46.95 570.831875 l
stroke
grestore
gsave
280.19 322.871875 m
280.19 570.831875 l
stroke
grestore
gsave
46.95 322.871875 m
280.19 322.871875 l
stroke
grestore
gsave
46.95 570.831875 m
280.19 570.831875 l
stroke
grestore
/DejaVuSans-Bold findfont
10.000 scalefont
setfont
gsave
61.422438 552.464468 translate
0.000000 rotate
0.000000 0.000000 m /one glyphshow
6.958008 0.000000 m /period glyphshow
10.756836 0.000000 m /zero glyphshow
grestore
gsave
97.257938 552.464468 translate
0.000000 rotate
0.000000 0.000000 m /one glyphshow
6.958008 0.000000 m /six glyphshow
13.916016 0.000000 m /period glyphshow
17.714844 0.000000 m /four glyphshow
24.672852 0.000000 m /three glyphshow
31.630859 0.000000 m /X glyphshow
grestore
gsave
143.905938 552.464468 translate
0.000000 rotate
0.000000 0.000000 m /two glyphshow
6.958008 0.000000 m /zero glyphshow
13.916016 0.000000 m /period glyphshow
17.714844 0.000000 m /one glyphshow
24.672852 0.000000 m /two glyphshow
31.630859 0.000000 m /X glyphshow
grestore
gsave
197.507063 552.464468 translate
0.000000 rotate
0.000000 0.000000 m /one glyphshow
6.958008 0.000000 m /period glyphshow
10.756836 0.000000 m /zero glyphshow
17.714844 0.000000 m /X glyphshow
grestore
gsave
240.678500 552.464468 translate
0.000000 rotate
0.000000 0.000000 m /zero glyphshow
6.958008 0.000000 m /period glyphshow
10.756836 0.000000 m /seven glyphshow
17.714844 0.000000 m /five glyphshow
24.672852 0.000000 m /X glyphshow
grestore
gsave
350.95 322.871875 m
584.19 322.871875 l
584.19 570.831875 l
350.95 570.831875 l
cl
1.000 setgray
fill
grestore
1 setlinejoin
0 setlinecap
[] 0 setdash
gsave
/o {
gsave
newpath
translate
0.8 setlinewidth
1 setlinejoin
0 setlinecap
0 0 m
0 -3.5 l

gsave
0.000 setgray
fill
grestore
stroke
grestore
} bind def
374.274 322.872 o
grestore
/DejaVuSans findfont
10.000 scalefont
setfont
gsave
363.063063 308.278125 translate
0.000000 rotate
0.000000 0.000000 m /M glyphshow
8.627930 0.000000 m /R glyphshow
15.576172 0.000000 m /A glyphshow
grestore
gsave
/o {
gsave
newpath
translate
0.8 setlinewidth
1 setlinejoin
0 setlinecap
0 0 m
0 -3.5 l

gsave
0.000 setgray
fill
grestore
stroke
grestore
} bind def
420.922 322.872 o
grestore
gsave
395.586063 308.278125 translate
0.000000 rotate
0.000000 0.000000 m /M glyphshow
8.627930 0.000000 m /R glyphshow
15.576172 0.000000 m /A glyphshow
22.416992 0.000000 m /O glyphshow
30.288086 0.000000 m /n glyphshow
36.625977 0.000000 m /e glyphshow
42.778320 0.000000 m /Q glyphshow
grestore
gsave
/o {
gsave
newpath
translate
0.8 setlinewidth
1 setlinejoin
0 setlinecap
0 0 m
0 -3.5 l

gsave
0.000 setgray
fill
grestore
stroke
grestore
} bind def
467.57 322.872 o
grestore
gsave
447.710625 308.278125 translate
0.000000 rotate
0.000000 0.000000 m /W glyphshow
9.887695 0.000000 m /A glyphshow
16.728516 0.000000 m /H glyphshow
24.248047 0.000000 m /i glyphshow
27.026367 0.000000 m /g glyphshow
33.374023 0.000000 m /h glyphshow
grestore
gsave
/o {
gsave
newpath
translate
0.8 setlinewidth
1 setlinejoin
0 setlinecap
0 0 m
0 -3.5 l

gsave
0.000 setgray
fill
grestore
stroke
grestore
} bind def
514.218 322.872 o
grestore
gsave
495.905500 308.278125 translate
0.000000 rotate
0.000000 0.000000 m /W glyphshow
9.887695 0.000000 m /A glyphshow
16.728516 0.000000 m /L glyphshow
22.299805 0.000000 m /o glyphshow
28.417969 0.000000 m /w glyphshow
grestore
gsave
/o {
gsave
newpath
translate
0.8 setlinewidth
1 setlinejoin
0 setlinecap
0 0 m
0 -3.5 l

gsave
0.000 setgray
fill
grestore
stroke
grestore
} bind def
560.866 322.872 o
grestore
gsave
542.905062 308.278125 translate
0.000000 rotate
0.000000 0.000000 m /Q glyphshow
7.871094 0.000000 m /D glyphshow
15.571289 0.000000 m /t glyphshow
19.492188 0.000000 m /r glyphshow
23.603516 0.000000 m /e glyphshow
29.755859 0.000000 m /e glyphshow
grestore
2 setlinecap
0.690 setgray
gsave
233.2 248 351 322.9 clipbox
350.95 334.14275 m
584.19 334.14275 l
stroke
grestore
0 setlinecap
0.000 setgray
gsave
/o {
gsave
newpath
translate
0.8 setlinewidth
1 setlinejoin
0 setlinecap
0 0 m
-3.5 0 l

gsave
0.000 setgray
fill
grestore
stroke
grestore
} bind def
350.95 334.143 o
grestore
gsave
337.590625 330.345875 translate
0.000000 rotate
0.000000 0.000000 m /zero glyphshow
grestore
2 setlinecap
0.690 setgray
gsave
233.2 248 351 322.9 clipbox
350.95 367.844901 m
584.19 367.844901 l
stroke
grestore
0 setlinecap
0.000 setgray
gsave
/o {
gsave
newpath
translate
0.8 setlinewidth
1 setlinejoin
0 setlinecap
0 0 m
-3.5 0 l

gsave
0.000 setgray
fill
grestore
stroke
grestore
} bind def
350.95 367.845 o
grestore
gsave
318.512500 364.048026 translate
0.000000 rotate
0.000000 0.000000 m /one glyphshow
6.362305 0.000000 m /zero glyphshow
12.724609 0.000000 m /zero glyphshow
19.086914 0.000000 m /zero glyphshow
grestore
2 setlinecap
0.690 setgray
gsave
233.2 248 351 322.9 clipbox
350.95 401.547051 m
584.19 401.547051 l
stroke
grestore
0 setlinecap
0.000 setgray
gsave
/o {
gsave
newpath
translate
0.8 setlinewidth
1 setlinejoin
0 setlinecap
0 0 m
-3.5 0 l

gsave
0.000 setgray
fill
grestore
stroke
grestore
} bind def
350.95 401.547 o
grestore
gsave
318.512500 397.750176 translate
0.000000 rotate
0.000000 0.000000 m /two glyphshow
6.362305 0.000000 m /zero glyphshow
12.724609 0.000000 m /zero glyphshow
19.086914 0.000000 m /zero glyphshow
grestore
2 setlinecap
0.690 setgray
gsave
233.2 248 351 322.9 clipbox
350.95 435.249202 m
584.19 435.249202 l
stroke
grestore
0 setlinecap
0.000 setgray
gsave
/o {
gsave
newpath
translate
0.8 setlinewidth
1 setlinejoin
0 setlinecap
0 0 m
-3.5 0 l

gsave
0.000 setgray
fill
grestore
stroke
grestore
} bind def
350.95 435.249 o
grestore
gsave
318.512500 431.452327 translate
0.000000 rotate
0.000000 0.000000 m /three glyphshow
6.362305 0.000000 m /zero glyphshow
12.724609 0.000000 m /zero glyphshow
19.086914 0.000000 m /zero glyphshow
grestore
2 setlinecap
0.690 setgray
gsave
233.2 248 351 322.9 clipbox
350.95 468.951352 m
584.19 468.951352 l
stroke
grestore
0 setlinecap
0.000 setgray
gsave
/o {
gsave
newpath
translate
0.8 setlinewidth
1 setlinejoin
0 setlinecap
0 0 m
-3.5 0 l

gsave
0.000 setgray
fill
grestore
stroke
grestore
} bind def
350.95 468.951 o
grestore
gsave
318.512500 465.154477 translate
0.000000 rotate
0.000000 0.000000 m /four glyphshow
6.362305 0.000000 m /zero glyphshow
12.724609 0.000000 m /zero glyphshow
19.086914 0.000000 m /zero glyphshow
grestore
2 setlinecap
0.690 setgray
gsave
233.2 248 351 322.9 clipbox
350.95 502.653503 m
584.19 502.653503 l
stroke
grestore
0 setlinecap
0.000 setgray
gsave
/o {
gsave
newpath
translate
0.8 setlinewidth
1 setlinejoin
0 setlinecap
0 0 m
-3.5 0 l

gsave
0.000 setgray
fill
grestore
stroke
grestore
} bind def
350.95 502.654 o
grestore
gsave
318.512500 498.856628 translate
0.000000 rotate
0.000000 0.000000 m /five glyphshow
6.362305 0.000000 m /zero glyphshow
12.724609 0.000000 m /zero glyphshow
19.086914 0.000000 m /zero glyphshow
grestore
2 setlinecap
0.690 setgray
gsave
233.2 248 351 322.9 clipbox
350.95 536.355653 m
584.19 536.355653 l
stroke
grestore
0 setlinecap
0.000 setgray
gsave
/o {
gsave
newpath
translate
0.8 setlinewidth
1 setlinejoin
0 setlinecap
0 0 m
-3.5 0 l

gsave
0.000 setgray
fill
grestore
stroke
grestore
} bind def
350.95 536.356 o
grestore
gsave
318.512500 532.558778 translate
0.000000 rotate
0.000000 0.000000 m /six glyphshow
6.362305 0.000000 m /zero glyphshow
12.724609 0.000000 m /zero glyphshow
19.086914 0.000000 m /zero glyphshow
grestore
2 setlinecap
0.690 setgray
gsave
233.2 248 351 322.9 clipbox
350.95 570.057804 m
584.19 570.057804 l
stroke
grestore
0 setlinecap
0.000 setgray
gsave
/o {
gsave
newpath
translate
0.8 setlinewidth
1 setlinejoin
0 setlinecap
0 0 m
-3.5 0 l

gsave
0.000 setgray
fill
grestore
stroke
grestore
} bind def
350.95 570.058 o
grestore
gsave
318.512500 566.260929 translate
0.000000 rotate
0.000000 0.000000 m /seven glyphshow
6.362305 0.000000 m /zero glyphshow
12.724609 0.000000 m /zero glyphshow
19.086914 0.000000 m /zero glyphshow
grestore
gsave
312.434375 375.445625 translate
90.000000 rotate
0.000000 0.000000 m /N glyphshow
7.480469 0.000000 m /u glyphshow
13.818359 0.000000 m /m glyphshow
23.559570 0.000000 m /b glyphshow
29.907227 0.000000 m /e glyphshow
36.059570 0.000000 m /r glyphshow
40.170898 0.000000 m /space glyphshow
43.349609 0.000000 m /o glyphshow
49.467773 0.000000 m /f glyphshow
52.988281 0.000000 m /space glyphshow
56.166992 0.000000 m /E glyphshow
62.485352 0.000000 m /x glyphshow
68.403320 0.000000 m /p glyphshow
74.750977 0.000000 m /a glyphshow
80.878906 0.000000 m /n glyphshow
87.216797 0.000000 m /s glyphshow
92.426758 0.000000 m /i glyphshow
95.205078 0.000000 m /o glyphshow
101.323242 0.000000 m /n glyphshow
107.661133 0.000000 m /s glyphshow
112.871094 0.000000 m /space glyphshow
116.049805 0.000000 m /parenleft glyphshow
119.951172 0.000000 m /one glyphshow
126.313477 0.000000 m /e glyphshow
132.465820 0.000000 m /three glyphshow
138.828125 0.000000 m /parenright glyphshow
grestore
1.000 setlinewidth
2 setlinecap
gsave
233.2 248 351 322.9 clipbox
374.274 334.183024 m
374.274 334.144098 l
stroke
grestore
gsave
233.2 248 351 322.9 clipbox
374.274 335.755103 m
374.274 337.831451 l
stroke
grestore
gsave
233.2 248 351 322.9 clipbox
368.443 334.144098 m
380.105 334.144098 l
stroke
grestore
gsave
233.2 248 351 322.9 clipbox
368.443 337.831451 m
380.105 337.831451 l
stroke
grestore
0 setlinecap
gsave
233.2 248 351 322.9 clipbox
/o {
gsave
newpath
translate
1.0 setlinewidth
1 setlinejoin
0 setlinecap
0 -3 m
0.795609 -3 1.55874 -2.683901 2.12132 -2.12132 c
2.683901 -1.55874 3 -0.795609 3 0 c
3 0.795609 2.683901 1.55874 2.12132 2.12132 c
1.55874 2.683901 0.795609 3 0 3 c
-0.795609 3 -1.55874 2.683901 -2.12132 2.12132 c
-2.683901 1.55874 -3 0.795609 -3 0 c
-3 -0.795609 -2.683901 -1.55874 -2.12132 -2.12132 c
-1.55874 -2.683901 -0.795609 -3 0 -3 c
cl

gsave
grestore
stroke
grestore
} bind def
374.274 425.022 o
374.274 368.45 o
374.274 389.249 o
374.274 365.638 o
374.274 342.824 o
374.274 357.189 o
374.274 368.956 o
374.274 341.088 o
374.274 351.62 o
374.274 347.748 o
374.274 339.245 o
374.274 375.125 o
374.274 341.562 o
374.274 400.007 o
374.274 403.247 o
374.274 339.293 o
374.274 362.24 o
374.274 401.172 o
374.274 385.776 o
374.274 345.381 o
374.274 454.167 o
374.274 406.329 o
374.274 361.71 o
374.274 347.578 o
374.274 343.71 o
374.274 342.537 o
grestore
2 setlinecap
gsave
233.2 248 351 322.9 clipbox
420.922 334.620411 m
420.922 334.143424 l
stroke
grestore
gsave
233.2 248 351 322.9 clipbox
420.922 368.448161 m
420.922 409.105702 l
stroke
grestore
gsave
233.2 248 351 322.9 clipbox
415.091 334.143424 m
426.753 334.143424 l
stroke
grestore
gsave
233.2 248 351 322.9 clipbox
415.091 409.105702 m
426.753 409.105702 l
stroke
grestore
0 setlinecap
gsave
233.2 248 351 322.9 clipbox
/o {
gsave
newpath
translate
1.0 setlinewidth
1 setlinejoin
0 setlinecap
0 -3 m
0.795609 -3 1.55874 -2.683901 2.12132 -2.12132 c
2.683901 -1.55874 3 -0.795609 3 0 c
3 0.795609 2.683901 1.55874 2.12132 2.12132 c
1.55874 2.683901 0.795609 3 0 3 c
-0.795609 3 -1.55874 2.683901 -2.12132 2.12132 c
-2.683901 1.55874 -3 0.795609 -3 0 c
-3 -0.795609 -2.683901 -1.55874 -2.12132 -2.12132 c
-1.55874 -2.683901 -0.795609 -3 0 -3 c
cl

gsave
grestore
stroke
grestore
} bind def
420.922 423.734 o
420.922 434.013 o
420.922 556.342 o
420.922 483.03 o
420.922 453.899 o
420.922 502.213 o
420.922 504.185 o
420.922 436.823 o
420.922 447.945 o
420.922 420.314 o
420.922 521.581 o
grestore
2 setlinecap
gsave
233.2 248 351 322.9 clipbox
467.57 334.736094 m
467.57 334.150266 l
stroke
grestore
gsave
233.2 248 351 322.9 clipbox
467.57 368.888876 m
467.57 414.939073 l
stroke
grestore
gsave
233.2 248 351 322.9 clipbox
461.739 334.150266 m
473.401 334.150266 l
stroke
grestore
gsave
233.2 248 351 322.9 clipbox
461.739 414.939073 m
473.401 414.939073 l
stroke
grestore
0 setlinecap
gsave
233.2 248 351 322.9 clipbox
/o {
gsave
newpath
translate
1.0 setlinewidth
1 setlinejoin
0 setlinecap
0 -3 m
0.795609 -3 1.55874 -2.683901 2.12132 -2.12132 c
2.683901 -1.55874 3 -0.795609 3 0 c
3 0.795609 2.683901 1.55874 2.12132 2.12132 c
1.55874 2.683901 0.795609 3 0 3 c
-0.795609 3 -1.55874 2.683901 -2.12132 2.12132 c
-2.683901 1.55874 -3 0.795609 -3 0 c
-3 -0.795609 -2.683901 -1.55874 -2.12132 -2.12132 c
-1.55874 -2.683901 -0.795609 -3 0 -3 c
cl

gsave
grestore
stroke
grestore
} bind def
467.57 430.41 o
467.57 424.431 o
467.57 559.561 o
467.57 486.293 o
467.57 462.619 o
467.57 502.245 o
467.57 503.954 o
467.57 437.172 o
467.57 447.268 o
467.57 421.575 o
467.57 497.482 o
grestore
2 setlinecap
gsave
233.2 248 351 322.9 clipbox
514.218 334.155574 m
514.218 334.143189 l
stroke
grestore
gsave
233.2 248 351 322.9 clipbox
514.218 334.378345 m
514.218 334.707194 l
stroke
grestore
gsave
233.2 248 351 322.9 clipbox
508.387 334.143189 m
520.049 334.143189 l
stroke
grestore
gsave
233.2 248 351 322.9 clipbox
508.387 334.707194 m
520.049 334.707194 l
stroke
grestore
0 setlinecap
gsave
233.2 248 351 322.9 clipbox
/o {
gsave
newpath
translate
1.0 setlinewidth
1 setlinejoin
0 setlinecap
0 -3 m
0.795609 -3 1.55874 -2.683901 2.12132 -2.12132 c
2.683901 -1.55874 3 -0.795609 3 0 c
3 0.795609 2.683901 1.55874 2.12132 2.12132 c
1.55874 2.683901 0.795609 3 0 3 c
-0.795609 3 -1.55874 2.683901 -2.12132 2.12132 c
-2.683901 1.55874 -3 0.795609 -3 0 c
-3 -0.795609 -2.683901 -1.55874 -2.12132 -2.12132 c
-1.55874 -2.683901 -0.795609 -3 0 -3 c
cl

gsave
grestore
stroke
grestore
} bind def
514.218 334.772 o
514.218 334.802 o
514.218 335.17 o
514.218 334.918 o
514.218 336.034 o
514.218 335.678 o
514.218 335.054 o
514.218 334.955 o
grestore
2 setlinecap
gsave
233.2 248 351 322.9 clipbox
560.866 334.18305 m
560.866 334.142784 l
stroke
grestore
gsave
233.2 248 351 322.9 clipbox
560.866 334.496126 m
560.866 334.93192 l
stroke
grestore
gsave
233.2 248 351 322.9 clipbox
555.035 334.142784 m
566.697 334.142784 l
stroke
grestore
gsave
233.2 248 351 322.9 clipbox
555.035 334.93192 m
566.697 334.93192 l
stroke
grestore
0 setlinecap
gsave
233.2 248 351 322.9 clipbox
/o {
gsave
newpath
translate
1.0 setlinewidth
1 setlinejoin
0 setlinecap
0 -3 m
0.795609 -3 1.55874 -2.683901 2.12132 -2.12132 c
2.683901 -1.55874 3 -0.795609 3 0 c
3 0.795609 2.683901 1.55874 2.12132 2.12132 c
1.55874 2.683901 0.795609 3 0 3 c
-0.795609 3 -1.55874 2.683901 -2.12132 2.12132 c
-2.683901 1.55874 -3 0.795609 -3 0 c
-3 -0.795609 -2.683901 -1.55874 -2.12132 -2.12132 c
-1.55874 -2.683901 -0.795609 -3 0 -3 c
cl

gsave
grestore
stroke
grestore
} bind def
560.866 335.135 o
560.866 334.985 o
560.866 335.115 o
560.866 335.15 o
560.866 336.275 o
grestore
0 setlinejoin
[] 0 setdash
gsave
233.2 248 351 322.9 clipbox
362.612 334.183024 m
385.936 334.183024 l
385.936 335.755103 l
362.612 335.755103 l
362.612 334.183024 l
cl
gsave
0.122 0.467 0.706 setrgbcolor
fill
grestore
stroke
grestore
gsave
233.2 248 351 322.9 clipbox
409.26 334.620411 m
432.584 334.620411 l
432.584 368.448161 l
409.26 368.448161 l
409.26 334.620411 l
cl
gsave
0.122 0.467 0.706 setrgbcolor
fill
grestore
stroke
grestore
gsave
233.2 248 351 322.9 clipbox
455.908 334.736094 m
479.232 334.736094 l
479.232 368.888876 l
455.908 368.888876 l
455.908 334.736094 l
cl
gsave
0.122 0.467 0.706 setrgbcolor
fill
grestore
stroke
grestore
gsave
233.2 248 351 322.9 clipbox
502.556 334.155574 m
525.88 334.155574 l
525.88 334.378345 l
502.556 334.378345 l
502.556 334.155574 l
cl
gsave
0.122 0.467 0.706 setrgbcolor
fill
grestore
stroke
grestore
gsave
233.2 248 351 322.9 clipbox
549.204 334.18305 m
572.528 334.18305 l
572.528 334.496126 l
549.204 334.496126 l
549.204 334.18305 l
cl
gsave
0.122 0.467 0.706 setrgbcolor
fill
grestore
stroke
grestore
1 setlinejoin
2 setlinecap
[] 0 setdash
1.000 0.498 0.055 setrgbcolor
gsave
233.2 248 351 322.9 clipbox
362.612 334.330488 m
385.936 334.330488 l
stroke
grestore
gsave
233.2 248 351 322.9 clipbox
409.26 343.049555 m
432.584 343.049555 l
stroke
grestore
gsave
233.2 248 351 322.9 clipbox
455.908 343.22521 m
479.232 343.22521 l
stroke
grestore
gsave
233.2 248 351 322.9 clipbox
502.556 334.228826 m
525.88 334.228826 l
stroke
grestore
gsave
233.2 248 351 322.9 clipbox
549.204 334.285243 m
572.528 334.285243 l
stroke
grestore
0.800 setlinewidth
0 setlinejoin
[] 0 setdash
0.000 setgray
gsave
350.95 322.871875 m
350.95 570.831875 l
stroke
grestore
gsave
584.19 322.871875 m
584.19 570.831875 l
stroke
grestore
gsave
350.95 322.871875 m
584.19 322.871875 l
stroke
grestore
gsave
350.95 570.831875 m
584.19 570.831875 l
stroke
grestore
gsave
46.95 23.871875 m
280.19 23.871875 l
280.19 271.831875 l
46.95 271.831875 l
cl
1.000 setgray
fill
grestore
1 setlinejoin
0 setlinecap
[] 0 setdash
gsave
/o {
gsave
newpath
translate
0.8 setlinewidth
1 setlinejoin
0 setlinecap
0 0 m
0 -3.5 l

gsave
0.000 setgray
fill
grestore
stroke
grestore
} bind def
70.274 23.8719 o
grestore
gsave
59.063063 9.278125 translate
0.000000 rotate
0.000000 0.000000 m /M glyphshow
8.627930 0.000000 m /R glyphshow
15.576172 0.000000 m /A glyphshow
grestore
gsave
/o {
gsave
newpath
translate
0.8 setlinewidth
1 setlinejoin
0 setlinecap
0 0 m
0 -3.5 l

gsave
0.000 setgray
fill
grestore
stroke
grestore
} bind def
116.922 23.8719 o
grestore
gsave
91.586063 9.278125 translate
0.000000 rotate
0.000000 0.000000 m /M glyphshow
8.627930 0.000000 m /R glyphshow
15.576172 0.000000 m /A glyphshow
22.416992 0.000000 m /O glyphshow
30.288086 0.000000 m /n glyphshow
36.625977 0.000000 m /e glyphshow
42.778320 0.000000 m /Q glyphshow
grestore
gsave
/o {
gsave
newpath
translate
0.8 setlinewidth
1 setlinejoin
0 setlinecap
0 0 m
0 -3.5 l

gsave
0.000 setgray
fill
grestore
stroke
grestore
} bind def
163.57 23.8719 o
grestore
gsave
143.710625 9.278125 translate
0.000000 rotate
0.000000 0.000000 m /W glyphshow
9.887695 0.000000 m /A glyphshow
16.728516 0.000000 m /H glyphshow
24.248047 0.000000 m /i glyphshow
27.026367 0.000000 m /g glyphshow
33.374023 0.000000 m /h glyphshow
grestore
gsave
/o {
gsave
newpath
translate
0.8 setlinewidth
1 setlinejoin
0 setlinecap
0 0 m
0 -3.5 l

gsave
0.000 setgray
fill
grestore
stroke
grestore
} bind def
210.218 23.8719 o
grestore
gsave
191.905500 9.278125 translate
0.000000 rotate
0.000000 0.000000 m /W glyphshow
9.887695 0.000000 m /A glyphshow
16.728516 0.000000 m /L glyphshow
22.299805 0.000000 m /o glyphshow
28.417969 0.000000 m /w glyphshow
grestore
gsave
/o {
gsave
newpath
translate
0.8 setlinewidth
1 setlinejoin
0 setlinecap
0 0 m
0 -3.5 l

gsave
0.000 setgray
fill
grestore
stroke
grestore
} bind def
256.866 23.8719 o
grestore
gsave
238.905063 9.278125 translate
0.000000 rotate
0.000000 0.000000 m /Q glyphshow
7.871094 0.000000 m /D glyphshow
15.571289 0.000000 m /t glyphshow
19.492188 0.000000 m /r glyphshow
23.603516 0.000000 m /e glyphshow
29.755859 0.000000 m /e glyphshow
grestore
2 setlinecap
0.690 setgray
gsave
233.2 248 46.95 23.87 clipbox
46.95 31.928215 m
280.19 31.928215 l
stroke
grestore
0 setlinecap
0.000 setgray
gsave
/o {
gsave
newpath
translate
0.8 setlinewidth
1 setlinejoin
0 setlinecap
0 0 m
-3.5 0 l

gsave
0.000 setgray
fill
grestore
stroke
grestore
} bind def
46.95 31.9282 o
grestore
gsave
33.590625 28.131340 translate
0.000000 rotate
0.000000 0.000000 m /zero glyphshow
grestore
2 setlinecap
0.690 setgray
gsave
233.2 248 46.95 23.87 clipbox
46.95 63.443597 m
280.19 63.443597 l
stroke
grestore
0 setlinecap
0.000 setgray
gsave
/o {
gsave
newpath
translate
0.8 setlinewidth
1 setlinejoin
0 setlinecap
0 0 m
-3.5 0 l

gsave
0.000 setgray
fill
grestore
stroke
grestore
} bind def
46.95 63.4436 o
grestore
gsave
27.231250 59.646722 translate
0.000000 rotate
0.000000 0.000000 m /two glyphshow
6.362305 0.000000 m /five glyphshow
grestore
2 setlinecap
0.690 setgray
gsave
233.2 248 46.95 23.87 clipbox
46.95 94.958979 m
280.19 94.958979 l
stroke
grestore
0 setlinecap
0.000 setgray
gsave
/o {
gsave
newpath
translate
0.8 setlinewidth
1 setlinejoin
0 setlinecap
0 0 m
-3.5 0 l

gsave
0.000 setgray
fill
grestore
stroke
grestore
} bind def
46.95 94.959 o
grestore
gsave
27.231250 91.162104 translate
0.000000 rotate
0.000000 0.000000 m /five glyphshow
6.362305 0.000000 m /zero glyphshow
grestore
2 setlinecap
0.690 setgray
gsave
233.2 248 46.95 23.87 clipbox
46.95 126.474361 m
280.19 126.474361 l
stroke
grestore
0 setlinecap
0.000 setgray
gsave
/o {
gsave
newpath
translate
0.8 setlinewidth
1 setlinejoin
0 setlinecap
0 0 m
-3.5 0 l

gsave
0.000 setgray
fill
grestore
stroke
grestore
} bind def
46.95 126.474 o
grestore
gsave
27.231250 122.677486 translate
0.000000 rotate
0.000000 0.000000 m /seven glyphshow
6.362305 0.000000 m /five glyphshow
grestore
2 setlinecap
0.690 setgray
gsave
233.2 248 46.95 23.87 clipbox
46.95 157.989743 m
280.19 157.989743 l
stroke
grestore
0 setlinecap
0.000 setgray
gsave
/o {
gsave
newpath
translate
0.8 setlinewidth
1 setlinejoin
0 setlinecap
0 0 m
-3.5 0 l

gsave
0.000 setgray
fill
grestore
stroke
grestore
} bind def
46.95 157.99 o
grestore
gsave
20.871875 154.192868 translate
0.000000 rotate
0.000000 0.000000 m /one glyphshow
6.362305 0.000000 m /zero glyphshow
12.724609 0.000000 m /zero glyphshow
grestore
2 setlinecap
0.690 setgray
gsave
233.2 248 46.95 23.87 clipbox
46.95 189.505125 m
280.19 189.505125 l
stroke
grestore
0 setlinecap
0.000 setgray
gsave
/o {
gsave
newpath
translate
0.8 setlinewidth
1 setlinejoin
0 setlinecap
0 0 m
-3.5 0 l

gsave
0.000 setgray
fill
grestore
stroke
grestore
} bind def
46.95 189.505 o
grestore
gsave
20.871875 185.708250 translate
0.000000 rotate
0.000000 0.000000 m /one glyphshow
6.362305 0.000000 m /two glyphshow
12.724609 0.000000 m /five glyphshow
grestore
2 setlinecap
0.690 setgray
gsave
233.2 248 46.95 23.87 clipbox
46.95 221.020507 m
280.19 221.020507 l
stroke
grestore
0 setlinecap
0.000 setgray
gsave
/o {
gsave
newpath
translate
0.8 setlinewidth
1 setlinejoin
0 setlinecap
0 0 m
-3.5 0 l

gsave
0.000 setgray
fill
grestore
stroke
grestore
} bind def
46.95 221.021 o
grestore
gsave
20.871875 217.223632 translate
0.000000 rotate
0.000000 0.000000 m /one glyphshow
6.362305 0.000000 m /five glyphshow
12.724609 0.000000 m /zero glyphshow
grestore
2 setlinecap
0.690 setgray
gsave
233.2 248 46.95 23.87 clipbox
46.95 252.535889 m
280.19 252.535889 l
stroke
grestore
0 setlinecap
0.000 setgray
gsave
/o {
gsave
newpath
translate
0.8 setlinewidth
1 setlinejoin
0 setlinecap
0 0 m
-3.5 0 l

gsave
0.000 setgray
fill
grestore
stroke
grestore
} bind def
46.95 252.536 o
grestore
gsave
20.871875 248.739014 translate
0.000000 rotate
0.000000 0.000000 m /one glyphshow
6.362305 0.000000 m /seven glyphshow
12.724609 0.000000 m /five glyphshow
grestore
gsave
14.793750 99.812813 translate
90.000000 rotate
0.000000 0.000000 m /S glyphshow
6.347656 0.000000 m /o glyphshow
12.465820 0.000000 m /l glyphshow
15.244141 0.000000 m /u glyphshow
21.582031 0.000000 m /t glyphshow
25.502930 0.000000 m /i glyphshow
28.281250 0.000000 m /o glyphshow
34.399414 0.000000 m /n glyphshow
40.737305 0.000000 m /space glyphshow
43.916016 0.000000 m /C glyphshow
50.898438 0.000000 m /o glyphshow
57.016602 0.000000 m /s glyphshow
62.226562 0.000000 m /t glyphshow
66.147461 0.000000 m /space glyphshow
69.326172 0.000000 m /parenleft glyphshow
73.227539 0.000000 m /one glyphshow
79.589844 0.000000 m /e glyphshow
85.742188 0.000000 m /three glyphshow
92.104492 0.000000 m /parenright glyphshow
grestore
1.000 setlinewidth
2 setlinecap
gsave
233.2 248 46.95 23.87 clipbox
70.274 99.768857 m
70.274 35.460459 l
stroke
grestore
gsave
233.2 248 46.95 23.87 clipbox
70.274 164.720168 m
70.274 241.460123 l
stroke
grestore
gsave
233.2 248 46.95 23.87 clipbox
64.443 35.460459 m
76.105 35.460459 l
stroke
grestore
gsave
233.2 248 46.95 23.87 clipbox
64.443 241.460123 m
76.105 241.460123 l
stroke
grestore
gsave
233.2 248 46.95 23.87 clipbox
116.922 102.264245 m
116.922 35.142784 l
stroke
grestore
gsave
233.2 248 46.95 23.87 clipbox
116.922 157.853597 m
116.922 229.728837 l
stroke
grestore
gsave
233.2 248 46.95 23.87 clipbox
111.091 35.142784 m
122.753 35.142784 l
stroke
grestore
gsave
233.2 248 46.95 23.87 clipbox
111.091 229.728837 m
122.753 229.728837 l
stroke
grestore
gsave
233.2 248 46.95 23.87 clipbox
163.57 104.540286 m
163.57 35.142784 l
stroke
grestore
gsave
233.2 248 46.95 23.87 clipbox
163.57 157.780481 m
163.57 236.629445 l
stroke
grestore
gsave
233.2 248 46.95 23.87 clipbox
157.739 35.142784 m
169.401 35.142784 l
stroke
grestore
gsave
233.2 248 46.95 23.87 clipbox
157.739 236.629445 m
169.401 236.629445 l
stroke
grestore
gsave
233.2 248 46.95 23.87 clipbox
210.218 106.723041 m
210.218 35.457938 l
stroke
grestore
gsave
233.2 248 46.95 23.87 clipbox
210.218 169.397681 m
210.218 244.276338 l
stroke
grestore
gsave
233.2 248 46.95 23.87 clipbox
204.387 35.457938 m
216.049 35.457938 l
stroke
grestore
gsave
233.2 248 46.95 23.87 clipbox
204.387 244.276338 m
216.049 244.276338 l
stroke
grestore
gsave
233.2 248 46.95 23.87 clipbox
256.866 106.49487 m
256.866 35.203294 l
stroke
grestore
gsave
233.2 248 46.95 23.87 clipbox
256.866 159.464663 m
256.866 236.365977 l
stroke
grestore
gsave
233.2 248 46.95 23.87 clipbox
251.035 35.203294 m
262.697 35.203294 l
stroke
grestore
gsave
233.2 248 46.95 23.87 clipbox
251.035 236.365977 m
262.697 236.365977 l
stroke
grestore
0 setlinecap
gsave
233.2 248 46.95 23.87 clipbox
/o {
gsave
newpath
translate
1.0 setlinewidth
1 setlinejoin
0 setlinecap
0 -3 m
0.795609 -3 1.55874 -2.683901 2.12132 -2.12132 c
2.683901 -1.55874 3 -0.795609 3 0 c
3 0.795609 2.683901 1.55874 2.12132 2.12132 c
1.55874 2.683901 0.795609 3 0 3 c
-0.795609 3 -1.55874 2.683901 -2.12132 2.12132 c
-2.683901 1.55874 -3 0.795609 -3 0 c
-3 -0.795609 -2.683901 -1.55874 -2.12132 -2.12132 c
-1.55874 -2.683901 -0.795609 -3 0 -3 c
cl

gsave
grestore
stroke
grestore
} bind def
256.866 260.561 o
grestore
0 setlinejoin
[] 0 setdash
gsave
233.2 248 46.95 23.87 clipbox
58.612 99.768857 m
81.936 99.768857 l
81.936 164.720168 l
58.612 164.720168 l
58.612 99.768857 l
cl
gsave
0.122 0.467 0.706 setrgbcolor
fill
grestore
stroke
grestore
gsave
233.2 248 46.95 23.87 clipbox
105.26 102.264245 m
128.584 102.264245 l
128.584 157.853597 l
105.26 157.853597 l
105.26 102.264245 l
cl
gsave
0.122 0.467 0.706 setrgbcolor
fill
grestore
stroke
grestore
gsave
233.2 248 46.95 23.87 clipbox
151.908 104.540286 m
175.232 104.540286 l
175.232 157.780481 l
151.908 157.780481 l
151.908 104.540286 l
cl
gsave
0.122 0.467 0.706 setrgbcolor
fill
grestore
stroke
grestore
gsave
233.2 248 46.95 23.87 clipbox
198.556 106.723041 m
221.88 106.723041 l
221.88 169.397681 l
198.556 169.397681 l
198.556 106.723041 l
cl
gsave
0.122 0.467 0.706 setrgbcolor
fill
grestore
stroke
grestore
gsave
233.2 248 46.95 23.87 clipbox
245.204 106.49487 m
268.528 106.49487 l
268.528 159.464663 l
245.204 159.464663 l
245.204 106.49487 l
cl
gsave
0.122 0.467 0.706 setrgbcolor
fill
grestore
stroke
grestore
1 setlinejoin
2 setlinecap
[] 0 setdash
1.000 0.498 0.055 setrgbcolor
gsave
233.2 248 46.95 23.87 clipbox
58.612 130.276377 m
81.936 130.276377 l
stroke
grestore
gsave
233.2 248 46.95 23.87 clipbox
105.26 127.969451 m
128.584 127.969451 l
stroke
grestore
gsave
233.2 248 46.95 23.87 clipbox
151.908 128.885918 m
175.232 128.885918 l
stroke
grestore
gsave
233.2 248 46.95 23.87 clipbox
198.556 137.246319 m
221.88 137.246319 l
stroke
grestore
gsave
233.2 248 46.95 23.87 clipbox
245.204 132.998675 m
268.528 132.998675 l
stroke
grestore
0.800 setlinewidth
0 setlinejoin
[] 0 setdash
0.000 setgray
gsave
46.95 23.871875 m
46.95 271.831875 l
stroke
grestore
gsave
280.19 23.871875 m
280.19 271.831875 l
stroke
grestore
gsave
46.95 23.871875 m
280.19 23.871875 l
stroke
grestore
gsave
46.95 271.831875 m
280.19 271.831875 l
stroke
grestore
gsave
350.95 23.871875 m
584.19 23.871875 l
584.19 271.831875 l
350.95 271.831875 l
cl
1.000 setgray
fill
grestore
gsave
233.2 248 351 23.87 clipbox
361.551818 23.871875 m
396.891212 23.871875 l
396.891212 258.449907 l
361.551818 258.449907 l
cl
0.122 0.467 0.706 setrgbcolor
fill
grestore
gsave
233.2 248 351 23.87 clipbox
405.726061 23.871875 m
441.065455 23.871875 l
441.065455 250.578161 l
405.726061 250.578161 l
cl
0.122 0.467 0.706 setrgbcolor
fill
grestore
gsave
233.2 248 351 23.87 clipbox
449.900303 23.871875 m
485.239697 23.871875 l
485.239697 252.15251 l
449.900303 252.15251 l
cl
0.122 0.467 0.706 setrgbcolor
fill
grestore
gsave
233.2 248 351 23.87 clipbox
494.074545 23.871875 m
529.413939 23.871875 l
529.413939 226.962923 l
494.074545 226.962923 l
cl
0.122 0.467 0.706 setrgbcolor
fill
grestore
gsave
233.2 248 351 23.87 clipbox
538.248788 23.871875 m
573.588182 23.871875 l
573.588182 260.024256 l
538.248788 260.024256 l
cl
0.122 0.467 0.706 setrgbcolor
fill
grestore
1 setlinejoin
0 setlinecap
[] 0 setdash
gsave
/o {
gsave
newpath
translate
0.8 setlinewidth
1 setlinejoin
0 setlinecap
0 0 m
0 -3.5 l

gsave
0.000 setgray
fill
grestore
stroke
grestore
} bind def
379.222 23.8719 o
grestore
gsave
368.010578 9.278125 translate
0.000000 rotate
0.000000 0.000000 m /M glyphshow
8.627930 0.000000 m /R glyphshow
15.576172 0.000000 m /A glyphshow
grestore
gsave
/o {
gsave
newpath
translate
0.8 setlinewidth
1 setlinejoin
0 setlinecap
0 0 m
0 -3.5 l

gsave
0.000 setgray
fill
grestore
stroke
grestore
} bind def
423.396 23.8719 o
grestore
gsave
398.059820 9.278125 translate
0.000000 rotate
0.000000 0.000000 m /M glyphshow
8.627930 0.000000 m /R glyphshow
15.576172 0.000000 m /A glyphshow
22.416992 0.000000 m /O glyphshow
30.288086 0.000000 m /n glyphshow
36.625977 0.000000 m /e glyphshow
42.778320 0.000000 m /Q glyphshow
grestore
gsave
/o {
gsave
newpath
translate
0.8 setlinewidth
1 setlinejoin
0 setlinecap
0 0 m
0 -3.5 l

gsave
0.000 setgray
fill
grestore
stroke
grestore
} bind def
467.57 23.8719 o
grestore
gsave
447.710625 9.278125 translate
0.000000 rotate
0.000000 0.000000 m /W glyphshow
9.887695 0.000000 m /A glyphshow
16.728516 0.000000 m /H glyphshow
24.248047 0.000000 m /i glyphshow
27.026367 0.000000 m /g glyphshow
33.374023 0.000000 m /h glyphshow
grestore
gsave
/o {
gsave
newpath
translate
0.8 setlinewidth
1 setlinejoin
0 setlinecap
0 0 m
0 -3.5 l

gsave
0.000 setgray
fill
grestore
stroke
grestore
} bind def
511.744 23.8719 o
grestore
gsave
493.431742 9.278125 translate
0.000000 rotate
0.000000 0.000000 m /W glyphshow
9.887695 0.000000 m /A glyphshow
16.728516 0.000000 m /L glyphshow
22.299805 0.000000 m /o glyphshow
28.417969 0.000000 m /w glyphshow
grestore
gsave
/o {
gsave
newpath
translate
0.8 setlinewidth
1 setlinejoin
0 setlinecap
0 0 m
0 -3.5 l

gsave
0.000 setgray
fill
grestore
stroke
grestore
} bind def
555.918 23.8719 o
grestore
gsave
537.957547 9.278125 translate
0.000000 rotate
0.000000 0.000000 m /Q glyphshow
7.871094 0.000000 m /D glyphshow
15.571289 0.000000 m /t glyphshow
19.492188 0.000000 m /r glyphshow
23.603516 0.000000 m /e glyphshow
29.755859 0.000000 m /e glyphshow
grestore
2 setlinecap
0.690 setgray
gsave
233.2 248 351 23.87 clipbox
350.95 23.871875 m
584.19 23.871875 l
stroke
grestore
0 setlinecap
0.000 setgray
gsave
/o {
gsave
newpath
translate
0.8 setlinewidth
1 setlinejoin
0 setlinecap
0 0 m
-3.5 0 l

gsave
0.000 setgray
fill
grestore
stroke
grestore
} bind def
350.95 23.8719 o
grestore
gsave
337.590625 20.075000 translate
0.000000 rotate
0.000000 0.000000 m /zero glyphshow
grestore
2 setlinecap
0.690 setgray
gsave
233.2 248 351 23.87 clipbox
350.95 71.102351 m
584.19 71.102351 l
stroke
grestore
0 setlinecap
0.000 setgray
gsave
/o {
gsave
newpath
translate
0.8 setlinewidth
1 setlinejoin
0 setlinecap
0 0 m
-3.5 0 l

gsave
0.000 setgray
fill
grestore
stroke
grestore
} bind def
350.95 71.1024 o
grestore
gsave
331.231250 67.305476 translate
0.000000 rotate
0.000000 0.000000 m /two glyphshow
6.362305 0.000000 m /zero glyphshow
grestore
2 setlinecap
0.690 setgray
gsave
233.2 248 351 23.87 clipbox
350.95 118.332827 m
584.19 118.332827 l
stroke
grestore
0 setlinecap
0.000 setgray
gsave
/o {
gsave
newpath
translate
0.8 setlinewidth
1 setlinejoin
0 setlinecap
0 0 m
-3.5 0 l

gsave
0.000 setgray
fill
grestore
stroke
grestore
} bind def
350.95 118.333 o
grestore
gsave
331.231250 114.535952 translate
0.000000 rotate
0.000000 0.000000 m /four glyphshow
6.362305 0.000000 m /zero glyphshow
grestore
2 setlinecap
0.690 setgray
gsave
233.2 248 351 23.87 clipbox
350.95 165.563304 m
584.19 165.563304 l
stroke
grestore
0 setlinecap
0.000 setgray
gsave
/o {
gsave
newpath
translate
0.8 setlinewidth
1 setlinejoin
0 setlinecap
0 0 m
-3.5 0 l

gsave
0.000 setgray
fill
grestore
stroke
grestore
} bind def
350.95 165.563 o
grestore
gsave
331.231250 161.766429 translate
0.000000 rotate
0.000000 0.000000 m /six glyphshow
6.362305 0.000000 m /zero glyphshow
grestore
2 setlinecap
0.690 setgray
gsave
233.2 248 351 23.87 clipbox
350.95 212.79378 m
584.19 212.79378 l
stroke
grestore
0 setlinecap
0.000 setgray
gsave
/o {
gsave
newpath
translate
0.8 setlinewidth
1 setlinejoin
0 setlinecap
0 0 m
-3.5 0 l

gsave
0.000 setgray
fill
grestore
stroke
grestore
} bind def
350.95 212.794 o
grestore
gsave
331.231250 208.996905 translate
0.000000 rotate
0.000000 0.000000 m /eight glyphshow
6.362305 0.000000 m /zero glyphshow
grestore
2 setlinecap
0.690 setgray
gsave
233.2 248 351 23.87 clipbox
350.95 260.024256 m
584.19 260.024256 l
stroke
grestore
0 setlinecap
0.000 setgray
gsave
/o {
gsave
newpath
translate
0.8 setlinewidth
1 setlinejoin
0 setlinecap
0 0 m
-3.5 0 l

gsave
0.000 setgray
fill
grestore
stroke
grestore
} bind def
350.95 260.024 o
grestore
gsave
324.871875 256.227381 translate
0.000000 rotate
0.000000 0.000000 m /one glyphshow
6.362305 0.000000 m /zero glyphshow
12.724609 0.000000 m /zero glyphshow
grestore
gsave
318.793750 104.289375 translate
90.000000 rotate
0.000000 0.000000 m /S glyphshow
6.347656 0.000000 m /u glyphshow
12.685547 0.000000 m /c glyphshow
18.183594 0.000000 m /c glyphshow
23.681641 0.000000 m /e glyphshow
29.833984 0.000000 m /s glyphshow
35.043945 0.000000 m /s glyphshow
40.253906 0.000000 m /space glyphshow
43.432617 0.000000 m /R glyphshow
50.380859 0.000000 m /a glyphshow
56.508789 0.000000 m /t glyphshow
60.429688 0.000000 m /e glyphshow
66.582031 0.000000 m /space glyphshow
69.760742 0.000000 m /parenleft glyphshow
73.662109 0.000000 m /percent glyphshow
83.164062 0.000000 m /parenright glyphshow
grestore
0 setlinejoin
2 setlinecap
[] 0 setdash
gsave
350.95 23.871875 m
350.95 271.831875 l
stroke
grestore
gsave
584.19 23.871875 m
584.19 271.831875 l
stroke
grestore
gsave
350.95 23.871875 m
584.19 23.871875 l
stroke
grestore
gsave
350.95 271.831875 m
584.19 271.831875 l
stroke
grestore
/DejaVuSans findfont
8.000 scalefont
setfont
gsave
489.408305 236.409018 translate
0.000000 rotate
0.000000 0.000000 m /i glyphshow
2.222656 0.000000 m /n glyphshow
7.292969 0.000000 m /c glyphshow
11.691406 0.000000 m /o glyphshow
16.585938 0.000000 m /m glyphshow
24.378906 0.000000 m /p glyphshow
29.457031 0.000000 m /l glyphshow
31.679688 0.000000 m /e glyphshow
36.601562 0.000000 m /t glyphshow
39.738281 0.000000 m /e glyphshow
grestore

end
showpage
